{"frames": [

{
	"filename": "Circle_Selected_00000",
	"frame": {"x":1,"y":1,"w":76,"h":76},
	"rotated": false,
	"trimmed": false,
	"spriteSourceSize": {"x":0,"y":0,"w":76,"h":76},
	"sourceSize": {"w":76,"h":76},
	"pivot": {"x":0.5,"y":0.5}
},
{
	"filename": "Circle_Selected_00001",
	"frame": {"x":1,"y":79,"w":76,"h":76},
	"rotated": false,
	"trimmed": false,
	"spriteSourceSize": {"x":0,"y":0,"w":76,"h":76},
	"sourceSize": {"w":76,"h":76},
	"pivot": {"x":0.5,"y":0.5}
},
{
	"filename": "Circle_Selected_00002",
	"frame": {"x":1,"y":157,"w":76,"h":76},
	"rotated": false,
	"trimmed": false,
	"spriteSourceSize": {"x":0,"y":0,"w":76,"h":76},
	"sourceSize": {"w":76,"h":76},
	"pivot": {"x":0.5,"y":0.5}
},
{
	"filename": "Circle_Selected_00003",
	"frame": {"x":1,"y":235,"w":76,"h":76},
	"rotated": false,
	"trimmed": false,
	"spriteSourceSize": {"x":0,"y":0,"w":76,"h":76},
	"sourceSize": {"w":76,"h":76},
	"pivot": {"x":0.5,"y":0.5}
},
{
	"filename": "Circle_Selected_00004",
	"frame": {"x":1,"y":313,"w":76,"h":76},
	"rotated": false,
	"trimmed": false,
	"spriteSourceSize": {"x":0,"y":0,"w":76,"h":76},
	"sourceSize": {"w":76,"h":76},
	"pivot": {"x":0.5,"y":0.5}
},
{
	"filename": "Circle_Selected_00005",
	"frame": {"x":1,"y":391,"w":76,"h":76},
	"rotated": false,
	"trimmed": false,
	"spriteSourceSize": {"x":0,"y":0,"w":76,"h":76},
	"sourceSize": {"w":76,"h":76},
	"pivot": {"x":0.5,"y":0.5}
},
{
	"filename": "Circle_Selected_00006",
	"frame": {"x":79,"y":1,"w":76,"h":76},
	"rotated": false,
	"trimmed": false,
	"spriteSourceSize": {"x":0,"y":0,"w":76,"h":76},
	"sourceSize": {"w":76,"h":76},
	"pivot": {"x":0.5,"y":0.5}
},
{
	"filename": "Circle_Selected_00007",
	"frame": {"x":79,"y":79,"w":76,"h":76},
	"rotated": false,
	"trimmed": false,
	"spriteSourceSize": {"x":0,"y":0,"w":76,"h":76},
	"sourceSize": {"w":76,"h":76},
	"pivot": {"x":0.5,"y":0.5}
},
{
	"filename": "Circle_Selected_00008",
	"frame": {"x":79,"y":157,"w":76,"h":76},
	"rotated": false,
	"trimmed": false,
	"spriteSourceSize": {"x":0,"y":0,"w":76,"h":76},
	"sourceSize": {"w":76,"h":76},
	"pivot": {"x":0.5,"y":0.5}
},
{
	"filename": "Circle_Selected_00009",
	"frame": {"x":79,"y":235,"w":76,"h":76},
	"rotated": false,
	"trimmed": false,
	"spriteSourceSize": {"x":0,"y":0,"w":76,"h":76},
	"sourceSize": {"w":76,"h":76},
	"pivot": {"x":0.5,"y":0.5}
},
{
	"filename": "Circle_Selected_00010",
	"frame": {"x":79,"y":313,"w":76,"h":76},
	"rotated": false,
	"trimmed": false,
	"spriteSourceSize": {"x":0,"y":0,"w":76,"h":76},
	"sourceSize": {"w":76,"h":76},
	"pivot": {"x":0.5,"y":0.5}
},
{
	"filename": "Circle_Selected_00011",
	"frame": {"x":79,"y":391,"w":76,"h":76},
	"rotated": false,
	"trimmed": false,
	"spriteSourceSize": {"x":0,"y":0,"w":76,"h":76},
	"sourceSize": {"w":76,"h":76},
	"pivot": {"x":0.5,"y":0.5}
},
{
	"filename": "Circle_Selected_00012",
	"frame": {"x":157,"y":1,"w":76,"h":76},
	"rotated": false,
	"trimmed": false,
	"spriteSourceSize": {"x":0,"y":0,"w":76,"h":76},
	"sourceSize": {"w":76,"h":76},
	"pivot": {"x":0.5,"y":0.5}
},
{
	"filename": "Circle_Selected_00013",
	"frame": {"x":157,"y":79,"w":76,"h":76},
	"rotated": false,
	"trimmed": false,
	"spriteSourceSize": {"x":0,"y":0,"w":76,"h":76},
	"sourceSize": {"w":76,"h":76},
	"pivot": {"x":0.5,"y":0.5}
},
{
	"filename": "Circle_Selected_00014",
	"frame": {"x":157,"y":157,"w":76,"h":76},
	"rotated": false,
	"trimmed": false,
	"spriteSourceSize": {"x":0,"y":0,"w":76,"h":76},
	"sourceSize": {"w":76,"h":76},
	"pivot": {"x":0.5,"y":0.5}
},
{
	"filename": "Circle_Selected_00015",
	"frame": {"x":157,"y":235,"w":76,"h":76},
	"rotated": false,
	"trimmed": false,
	"spriteSourceSize": {"x":0,"y":0,"w":76,"h":76},
	"sourceSize": {"w":76,"h":76},
	"pivot": {"x":0.5,"y":0.5}
},
{
	"filename": "Circle_Selected_00016",
	"frame": {"x":157,"y":313,"w":76,"h":76},
	"rotated": false,
	"trimmed": false,
	"spriteSourceSize": {"x":0,"y":0,"w":76,"h":76},
	"sourceSize": {"w":76,"h":76},
	"pivot": {"x":0.5,"y":0.5}
},
{
	"filename": "Circle_Selected_00017",
	"frame": {"x":157,"y":391,"w":76,"h":76},
	"rotated": false,
	"trimmed": false,
	"spriteSourceSize": {"x":0,"y":0,"w":76,"h":76},
	"sourceSize": {"w":76,"h":76},
	"pivot": {"x":0.5,"y":0.5}
},
{
	"filename": "Circle_Selected_00018",
	"frame": {"x":235,"y":1,"w":76,"h":76},
	"rotated": false,
	"trimmed": false,
	"spriteSourceSize": {"x":0,"y":0,"w":76,"h":76},
	"sourceSize": {"w":76,"h":76},
	"pivot": {"x":0.5,"y":0.5}
},
{
	"filename": "Circle_Selected_00019",
	"frame": {"x":235,"y":79,"w":76,"h":76},
	"rotated": false,
	"trimmed": false,
	"spriteSourceSize": {"x":0,"y":0,"w":76,"h":76},
	"sourceSize": {"w":76,"h":76},
	"pivot": {"x":0.5,"y":0.5}
},
{
	"filename": "Circle_Selected_00020",
	"frame": {"x":235,"y":157,"w":76,"h":76},
	"rotated": false,
	"trimmed": false,
	"spriteSourceSize": {"x":0,"y":0,"w":76,"h":76},
	"sourceSize": {"w":76,"h":76},
	"pivot": {"x":0.5,"y":0.5}
},
{
	"filename": "Circle_Selected_00021",
	"frame": {"x":235,"y":235,"w":76,"h":76},
	"rotated": false,
	"trimmed": false,
	"spriteSourceSize": {"x":0,"y":0,"w":76,"h":76},
	"sourceSize": {"w":76,"h":76},
	"pivot": {"x":0.5,"y":0.5}
},
{
	"filename": "Circle_Selected_00022",
	"frame": {"x":235,"y":313,"w":76,"h":76},
	"rotated": false,
	"trimmed": false,
	"spriteSourceSize": {"x":0,"y":0,"w":76,"h":76},
	"sourceSize": {"w":76,"h":76},
	"pivot": {"x":0.5,"y":0.5}
},
{
	"filename": "Circle_Selected_00023",
	"frame": {"x":235,"y":391,"w":76,"h":76},
	"rotated": false,
	"trimmed": false,
	"spriteSourceSize": {"x":0,"y":0,"w":76,"h":76},
	"sourceSize": {"w":76,"h":76},
	"pivot": {"x":0.5,"y":0.5}
},
{
	"filename": "Circle_Selected_00024",
	"frame": {"x":313,"y":1,"w":76,"h":76},
	"rotated": false,
	"trimmed": false,
	"spriteSourceSize": {"x":0,"y":0,"w":76,"h":76},
	"sourceSize": {"w":76,"h":76},
	"pivot": {"x":0.5,"y":0.5}
},
{
	"filename": "Circle_Selected_00025",
	"frame": {"x":313,"y":79,"w":76,"h":76},
	"rotated": false,
	"trimmed": false,
	"spriteSourceSize": {"x":0,"y":0,"w":76,"h":76},
	"sourceSize": {"w":76,"h":76},
	"pivot": {"x":0.5,"y":0.5}
},
{
	"filename": "Circle_Selected_00026",
	"frame": {"x":313,"y":157,"w":76,"h":76},
	"rotated": false,
	"trimmed": false,
	"spriteSourceSize": {"x":0,"y":0,"w":76,"h":76},
	"sourceSize": {"w":76,"h":76},
	"pivot": {"x":0.5,"y":0.5}
},
{
	"filename": "Circle_Selected_00027",
	"frame": {"x":313,"y":235,"w":76,"h":76},
	"rotated": false,
	"trimmed": false,
	"spriteSourceSize": {"x":0,"y":0,"w":76,"h":76},
	"sourceSize": {"w":76,"h":76},
	"pivot": {"x":0.5,"y":0.5}
},
{
	"filename": "Circle_Selected_00028",
	"frame": {"x":313,"y":313,"w":76,"h":76},
	"rotated": false,
	"trimmed": false,
	"spriteSourceSize": {"x":0,"y":0,"w":76,"h":76},
	"sourceSize": {"w":76,"h":76},
	"pivot": {"x":0.5,"y":0.5}
},
{
	"filename": "Circle_Selected_00029",
	"frame": {"x":313,"y":391,"w":76,"h":76},
	"rotated": false,
	"trimmed": false,
	"spriteSourceSize": {"x":0,"y":0,"w":76,"h":76},
	"sourceSize": {"w":76,"h":76},
	"pivot": {"x":0.5,"y":0.5}
}],
"meta": {
	"app": "https://www.codeandweb.com/texturepacker",
	"version": "1.0",
	"image": "Circle-Selected_With-Hand",
	"format": "RGBA8888",
	"size": {"w":468,"h":468},
	"scale": "0.2",
	"smartupdate": "$TexturePacker:SmartUpdate:9216e852ce3ec268dbe2ca5eb3a0de7a:03fe1a3e49d881a0753a337a0e20a534:7f8012a2300de76594e3c3c8e75389c9$"
}
}
