{"frames": [

{
	"filename": "Intro_Spaceship_00000.png",
	"frame": {"x":1,"y":1,"w":790,"h":573},
	"rotated": false,
	"trimmed": true,
	"spriteSourceSize": {"x":35,"y":0,"w":790,"h":573},
	"sourceSize": {"w":842,"h":596},
	"pivot": {"x":0.5,"y":0.5}
},
{
	"filename": "Intro_Spaceship_00001.png",
	"frame": {"x":793,"y":1,"w":790,"h":573},
	"rotated": false,
	"trimmed": true,
	"spriteSourceSize": {"x":35,"y":0,"w":790,"h":573},
	"sourceSize": {"w":842,"h":596},
	"pivot": {"x":0.5,"y":0.5}
},
{
	"filename": "Intro_Spaceship_00002.png",
	"frame": {"x":1585,"y":1,"w":790,"h":573},
	"rotated": false,
	"trimmed": true,
	"spriteSourceSize": {"x":35,"y":0,"w":790,"h":573},
	"sourceSize": {"w":842,"h":596},
	"pivot": {"x":0.5,"y":0.5}
},
{
	"filename": "Intro_Spaceship_00003.png",
	"frame": {"x":2377,"y":1,"w":790,"h":573},
	"rotated": false,
	"trimmed": true,
	"spriteSourceSize": {"x":35,"y":0,"w":790,"h":573},
	"sourceSize": {"w":842,"h":596},
	"pivot": {"x":0.5,"y":0.5}
},
{
	"filename": "Intro_Spaceship_00004.png",
	"frame": {"x":3169,"y":1,"w":790,"h":573},
	"rotated": false,
	"trimmed": true,
	"spriteSourceSize": {"x":35,"y":0,"w":790,"h":573},
	"sourceSize": {"w":842,"h":596},
	"pivot": {"x":0.5,"y":0.5}
},
{
	"filename": "Intro_Spaceship_00005.png",
	"frame": {"x":3961,"y":1,"w":790,"h":573},
	"rotated": false,
	"trimmed": true,
	"spriteSourceSize": {"x":35,"y":0,"w":790,"h":573},
	"sourceSize": {"w":842,"h":596},
	"pivot": {"x":0.5,"y":0.5}
},
{
	"filename": "Intro_Spaceship_00006.png",
	"frame": {"x":1,"y":576,"w":790,"h":573},
	"rotated": false,
	"trimmed": true,
	"spriteSourceSize": {"x":35,"y":0,"w":790,"h":573},
	"sourceSize": {"w":842,"h":596},
	"pivot": {"x":0.5,"y":0.5}
},
{
	"filename": "Intro_Spaceship_00007.png",
	"frame": {"x":1,"y":1151,"w":790,"h":573},
	"rotated": false,
	"trimmed": true,
	"spriteSourceSize": {"x":35,"y":0,"w":790,"h":573},
	"sourceSize": {"w":842,"h":596},
	"pivot": {"x":0.5,"y":0.5}
},
{
	"filename": "Intro_Spaceship_00008.png",
	"frame": {"x":1,"y":1726,"w":790,"h":573},
	"rotated": false,
	"trimmed": true,
	"spriteSourceSize": {"x":35,"y":0,"w":790,"h":573},
	"sourceSize": {"w":842,"h":596},
	"pivot": {"x":0.5,"y":0.5}
},
{
	"filename": "Intro_Spaceship_00009.png",
	"frame": {"x":1,"y":2301,"w":790,"h":573},
	"rotated": false,
	"trimmed": true,
	"spriteSourceSize": {"x":35,"y":0,"w":790,"h":573},
	"sourceSize": {"w":842,"h":596},
	"pivot": {"x":0.5,"y":0.5}
},
{
	"filename": "Intro_Spaceship_00010.png",
	"frame": {"x":1,"y":2876,"w":790,"h":573},
	"rotated": false,
	"trimmed": true,
	"spriteSourceSize": {"x":35,"y":0,"w":790,"h":573},
	"sourceSize": {"w":842,"h":596},
	"pivot": {"x":0.5,"y":0.5}
},
{
	"filename": "Intro_Spaceship_00011.png",
	"frame": {"x":1,"y":3451,"w":790,"h":573},
	"rotated": false,
	"trimmed": true,
	"spriteSourceSize": {"x":35,"y":0,"w":790,"h":573},
	"sourceSize": {"w":842,"h":596},
	"pivot": {"x":0.5,"y":0.5}
},
{
	"filename": "Intro_Spaceship_00012.png",
	"frame": {"x":1,"y":4026,"w":790,"h":573},
	"rotated": false,
	"trimmed": true,
	"spriteSourceSize": {"x":35,"y":0,"w":790,"h":573},
	"sourceSize": {"w":842,"h":596},
	"pivot": {"x":0.5,"y":0.5}
},
{
	"filename": "Intro_Spaceship_00013.png",
	"frame": {"x":793,"y":576,"w":790,"h":573},
	"rotated": false,
	"trimmed": true,
	"spriteSourceSize": {"x":35,"y":0,"w":790,"h":573},
	"sourceSize": {"w":842,"h":596},
	"pivot": {"x":0.5,"y":0.5}
},
{
	"filename": "Intro_Spaceship_00014.png",
	"frame": {"x":1585,"y":576,"w":790,"h":573},
	"rotated": false,
	"trimmed": true,
	"spriteSourceSize": {"x":35,"y":0,"w":790,"h":573},
	"sourceSize": {"w":842,"h":596},
	"pivot": {"x":0.5,"y":0.5}
},
{
	"filename": "Intro_Spaceship_00015.png",
	"frame": {"x":2377,"y":576,"w":790,"h":573},
	"rotated": false,
	"trimmed": true,
	"spriteSourceSize": {"x":35,"y":0,"w":790,"h":573},
	"sourceSize": {"w":842,"h":596},
	"pivot": {"x":0.5,"y":0.5}
},
{
	"filename": "Intro_Spaceship_00016.png",
	"frame": {"x":3169,"y":576,"w":790,"h":573},
	"rotated": false,
	"trimmed": true,
	"spriteSourceSize": {"x":35,"y":0,"w":790,"h":573},
	"sourceSize": {"w":842,"h":596},
	"pivot": {"x":0.5,"y":0.5}
},
{
	"filename": "Intro_Spaceship_00017.png",
	"frame": {"x":3961,"y":576,"w":790,"h":573},
	"rotated": false,
	"trimmed": true,
	"spriteSourceSize": {"x":35,"y":0,"w":790,"h":573},
	"sourceSize": {"w":842,"h":596},
	"pivot": {"x":0.5,"y":0.5}
},
{
	"filename": "Intro_Spaceship_00018.png",
	"frame": {"x":793,"y":1151,"w":790,"h":573},
	"rotated": false,
	"trimmed": true,
	"spriteSourceSize": {"x":35,"y":0,"w":790,"h":573},
	"sourceSize": {"w":842,"h":596},
	"pivot": {"x":0.5,"y":0.5}
},
{
	"filename": "Intro_Spaceship_00019.png",
	"frame": {"x":1585,"y":1151,"w":790,"h":573},
	"rotated": false,
	"trimmed": true,
	"spriteSourceSize": {"x":35,"y":0,"w":790,"h":573},
	"sourceSize": {"w":842,"h":596},
	"pivot": {"x":0.5,"y":0.5}
},
{
	"filename": "Intro_Spaceship_00020.png",
	"frame": {"x":2377,"y":1151,"w":790,"h":573},
	"rotated": false,
	"trimmed": true,
	"spriteSourceSize": {"x":35,"y":0,"w":790,"h":573},
	"sourceSize": {"w":842,"h":596},
	"pivot": {"x":0.5,"y":0.5}
},
{
	"filename": "Intro_Spaceship_00021.png",
	"frame": {"x":3169,"y":1151,"w":790,"h":573},
	"rotated": false,
	"trimmed": true,
	"spriteSourceSize": {"x":35,"y":0,"w":790,"h":573},
	"sourceSize": {"w":842,"h":596},
	"pivot": {"x":0.5,"y":0.5}
},
{
	"filename": "Intro_Spaceship_00022.png",
	"frame": {"x":3961,"y":1151,"w":790,"h":573},
	"rotated": false,
	"trimmed": true,
	"spriteSourceSize": {"x":35,"y":0,"w":790,"h":573},
	"sourceSize": {"w":842,"h":596},
	"pivot": {"x":0.5,"y":0.5}
},
{
	"filename": "Intro_Spaceship_00023.png",
	"frame": {"x":793,"y":1726,"w":790,"h":573},
	"rotated": false,
	"trimmed": true,
	"spriteSourceSize": {"x":35,"y":0,"w":790,"h":573},
	"sourceSize": {"w":842,"h":596},
	"pivot": {"x":0.5,"y":0.5}
},
{
	"filename": "Intro_Spaceship_00024.png",
	"frame": {"x":793,"y":2301,"w":790,"h":573},
	"rotated": false,
	"trimmed": true,
	"spriteSourceSize": {"x":35,"y":0,"w":790,"h":573},
	"sourceSize": {"w":842,"h":596},
	"pivot": {"x":0.5,"y":0.5}
},
{
	"filename": "Intro_Spaceship_00025.png",
	"frame": {"x":793,"y":2876,"w":790,"h":573},
	"rotated": false,
	"trimmed": true,
	"spriteSourceSize": {"x":35,"y":0,"w":790,"h":573},
	"sourceSize": {"w":842,"h":596},
	"pivot": {"x":0.5,"y":0.5}
},
{
	"filename": "Intro_Spaceship_00026.png",
	"frame": {"x":793,"y":3451,"w":790,"h":573},
	"rotated": false,
	"trimmed": true,
	"spriteSourceSize": {"x":35,"y":0,"w":790,"h":573},
	"sourceSize": {"w":842,"h":596},
	"pivot": {"x":0.5,"y":0.5}
},
{
	"filename": "Intro_Spaceship_00027.png",
	"frame": {"x":793,"y":4026,"w":790,"h":573},
	"rotated": false,
	"trimmed": true,
	"spriteSourceSize": {"x":35,"y":0,"w":790,"h":573},
	"sourceSize": {"w":842,"h":596},
	"pivot": {"x":0.5,"y":0.5}
},
{
	"filename": "Intro_Spaceship_00028.png",
	"frame": {"x":1585,"y":1726,"w":790,"h":573},
	"rotated": false,
	"trimmed": true,
	"spriteSourceSize": {"x":35,"y":0,"w":790,"h":573},
	"sourceSize": {"w":842,"h":596},
	"pivot": {"x":0.5,"y":0.5}
},
{
	"filename": "Intro_Spaceship_00029.png",
	"frame": {"x":2377,"y":1726,"w":790,"h":573},
	"rotated": false,
	"trimmed": true,
	"spriteSourceSize": {"x":35,"y":0,"w":790,"h":573},
	"sourceSize": {"w":842,"h":596},
	"pivot": {"x":0.5,"y":0.5}
},
{
	"filename": "Intro_Spaceship_00030.png",
	"frame": {"x":3169,"y":1726,"w":790,"h":573},
	"rotated": false,
	"trimmed": true,
	"spriteSourceSize": {"x":35,"y":0,"w":790,"h":573},
	"sourceSize": {"w":842,"h":596},
	"pivot": {"x":0.5,"y":0.5}
},
{
	"filename": "Intro_Spaceship_00031.png",
	"frame": {"x":3961,"y":1726,"w":790,"h":573},
	"rotated": false,
	"trimmed": true,
	"spriteSourceSize": {"x":35,"y":0,"w":790,"h":573},
	"sourceSize": {"w":842,"h":596},
	"pivot": {"x":0.5,"y":0.5}
},
{
	"filename": "Intro_Spaceship_00032.png",
	"frame": {"x":1585,"y":2301,"w":790,"h":573},
	"rotated": false,
	"trimmed": true,
	"spriteSourceSize": {"x":35,"y":0,"w":790,"h":573},
	"sourceSize": {"w":842,"h":596},
	"pivot": {"x":0.5,"y":0.5}
},
{
	"filename": "Intro_Spaceship_00033.png",
	"frame": {"x":1585,"y":2876,"w":790,"h":573},
	"rotated": false,
	"trimmed": true,
	"spriteSourceSize": {"x":35,"y":0,"w":790,"h":573},
	"sourceSize": {"w":842,"h":596},
	"pivot": {"x":0.5,"y":0.5}
},
{
	"filename": "Intro_Spaceship_00034.png",
	"frame": {"x":1585,"y":3451,"w":790,"h":573},
	"rotated": false,
	"trimmed": true,
	"spriteSourceSize": {"x":35,"y":0,"w":790,"h":573},
	"sourceSize": {"w":842,"h":596},
	"pivot": {"x":0.5,"y":0.5}
},
{
	"filename": "Intro_Spaceship_00035.png",
	"frame": {"x":1585,"y":4026,"w":790,"h":573},
	"rotated": false,
	"trimmed": true,
	"spriteSourceSize": {"x":35,"y":0,"w":790,"h":573},
	"sourceSize": {"w":842,"h":596},
	"pivot": {"x":0.5,"y":0.5}
},
{
	"filename": "Intro_Spaceship_00036.png",
	"frame": {"x":2377,"y":2301,"w":790,"h":573},
	"rotated": false,
	"trimmed": true,
	"spriteSourceSize": {"x":35,"y":0,"w":790,"h":573},
	"sourceSize": {"w":842,"h":596},
	"pivot": {"x":0.5,"y":0.5}
},
{
	"filename": "Intro_Spaceship_00037.png",
	"frame": {"x":3169,"y":2301,"w":790,"h":573},
	"rotated": false,
	"trimmed": true,
	"spriteSourceSize": {"x":35,"y":0,"w":790,"h":573},
	"sourceSize": {"w":842,"h":596},
	"pivot": {"x":0.5,"y":0.5}
},
{
	"filename": "Intro_Spaceship_00038.png",
	"frame": {"x":3961,"y":2301,"w":790,"h":573},
	"rotated": false,
	"trimmed": true,
	"spriteSourceSize": {"x":35,"y":0,"w":790,"h":573},
	"sourceSize": {"w":842,"h":596},
	"pivot": {"x":0.5,"y":0.5}
},
{
	"filename": "Intro_Spaceship_00039.png",
	"frame": {"x":2377,"y":2876,"w":790,"h":573},
	"rotated": false,
	"trimmed": true,
	"spriteSourceSize": {"x":35,"y":0,"w":790,"h":573},
	"sourceSize": {"w":842,"h":596},
	"pivot": {"x":0.5,"y":0.5}
},
{
	"filename": "Intro_Spaceship_00040.png",
	"frame": {"x":2377,"y":3451,"w":790,"h":573},
	"rotated": false,
	"trimmed": true,
	"spriteSourceSize": {"x":35,"y":0,"w":790,"h":573},
	"sourceSize": {"w":842,"h":596},
	"pivot": {"x":0.5,"y":0.5}
},
{
	"filename": "Intro_Spaceship_00041.png",
	"frame": {"x":2377,"y":4026,"w":790,"h":573},
	"rotated": false,
	"trimmed": true,
	"spriteSourceSize": {"x":35,"y":0,"w":790,"h":573},
	"sourceSize": {"w":842,"h":596},
	"pivot": {"x":0.5,"y":0.5}
},
{
	"filename": "Intro_Spaceship_00042.png",
	"frame": {"x":3169,"y":2876,"w":790,"h":573},
	"rotated": false,
	"trimmed": true,
	"spriteSourceSize": {"x":35,"y":0,"w":790,"h":573},
	"sourceSize": {"w":842,"h":596},
	"pivot": {"x":0.5,"y":0.5}
},
{
	"filename": "Intro_Spaceship_00043.png",
	"frame": {"x":3961,"y":2876,"w":790,"h":573},
	"rotated": false,
	"trimmed": true,
	"spriteSourceSize": {"x":35,"y":0,"w":790,"h":573},
	"sourceSize": {"w":842,"h":596},
	"pivot": {"x":0.5,"y":0.5}
},
{
	"filename": "Intro_Spaceship_00044.png",
	"frame": {"x":3169,"y":3451,"w":790,"h":573},
	"rotated": false,
	"trimmed": true,
	"spriteSourceSize": {"x":35,"y":0,"w":790,"h":573},
	"sourceSize": {"w":842,"h":596},
	"pivot": {"x":0.5,"y":0.5}
},
{
	"filename": "Intro_Spaceship_00045.png",
	"frame": {"x":3961,"y":3451,"w":790,"h":573},
	"rotated": false,
	"trimmed": true,
	"spriteSourceSize": {"x":35,"y":0,"w":790,"h":573},
	"sourceSize": {"w":842,"h":596},
	"pivot": {"x":0.5,"y":0.5}
},
{
	"filename": "Intro_Spaceship_00046.png",
	"frame": {"x":3169,"y":4026,"w":790,"h":573},
	"rotated": false,
	"trimmed": true,
	"spriteSourceSize": {"x":35,"y":0,"w":790,"h":573},
	"sourceSize": {"w":842,"h":596},
	"pivot": {"x":0.5,"y":0.5}
},
{
	"filename": "Intro_Spaceship_00047.png",
	"frame": {"x":3961,"y":4026,"w":790,"h":573},
	"rotated": false,
	"trimmed": true,
	"spriteSourceSize": {"x":35,"y":0,"w":790,"h":573},
	"sourceSize": {"w":842,"h":596},
	"pivot": {"x":0.5,"y":0.5}
}],
"meta": {
	"app": "https://www.codeandweb.com/texturepacker",
	"version": "1.0",
	"image": "Intro-Spaceship.png",
	"format": "RGBA8888",
	"size": {"w":4752,"h":4752},
	"scale": "1",
	"smartupdate": "$TexturePacker:SmartUpdate:9e0c36ede76a1e37e0baaff6b20334ea:7590eea3c8a2a02d23606a6123a5045d:2ba205cef5acb6949205749d5e929569$"
}
}
