{"frames": [

{
	"filename": "Alien-Falling_00000",
	"frame": {"x":1,"y":1,"w":329,"h":329},
	"rotated": false,
	"trimmed": false,
	"spriteSourceSize": {"x":0,"y":0,"w":329,"h":329},
	"sourceSize": {"w":329,"h":329},
	"pivot": {"x":0.5,"y":0.5}
},
{
	"filename": "Alien-Falling_00001",
	"frame": {"x":1,"y":332,"w":329,"h":329},
	"rotated": false,
	"trimmed": false,
	"spriteSourceSize": {"x":0,"y":0,"w":329,"h":329},
	"sourceSize": {"w":329,"h":329},
	"pivot": {"x":0.5,"y":0.5}
},
{
	"filename": "Alien-Falling_00002",
	"frame": {"x":1,"y":663,"w":329,"h":329},
	"rotated": false,
	"trimmed": false,
	"spriteSourceSize": {"x":0,"y":0,"w":329,"h":329},
	"sourceSize": {"w":329,"h":329},
	"pivot": {"x":0.5,"y":0.5}
},
{
	"filename": "Alien-Falling_00003",
	"frame": {"x":1,"y":994,"w":329,"h":329},
	"rotated": false,
	"trimmed": false,
	"spriteSourceSize": {"x":0,"y":0,"w":329,"h":329},
	"sourceSize": {"w":329,"h":329},
	"pivot": {"x":0.5,"y":0.5}
},
{
	"filename": "Alien-Falling_00004",
	"frame": {"x":1,"y":1325,"w":329,"h":329},
	"rotated": false,
	"trimmed": false,
	"spriteSourceSize": {"x":0,"y":0,"w":329,"h":329},
	"sourceSize": {"w":329,"h":329},
	"pivot": {"x":0.5,"y":0.5}
},
{
	"filename": "Alien-Falling_00005",
	"frame": {"x":1,"y":1656,"w":329,"h":329},
	"rotated": false,
	"trimmed": false,
	"spriteSourceSize": {"x":0,"y":0,"w":329,"h":329},
	"sourceSize": {"w":329,"h":329},
	"pivot": {"x":0.5,"y":0.5}
},
{
	"filename": "Alien-Falling_00006",
	"frame": {"x":332,"y":1,"w":329,"h":329},
	"rotated": false,
	"trimmed": false,
	"spriteSourceSize": {"x":0,"y":0,"w":329,"h":329},
	"sourceSize": {"w":329,"h":329},
	"pivot": {"x":0.5,"y":0.5}
},
{
	"filename": "Alien-Falling_00007",
	"frame": {"x":663,"y":1,"w":329,"h":329},
	"rotated": false,
	"trimmed": false,
	"spriteSourceSize": {"x":0,"y":0,"w":329,"h":329},
	"sourceSize": {"w":329,"h":329},
	"pivot": {"x":0.5,"y":0.5}
},
{
	"filename": "Alien-Falling_00008",
	"frame": {"x":994,"y":1,"w":329,"h":329},
	"rotated": false,
	"trimmed": false,
	"spriteSourceSize": {"x":0,"y":0,"w":329,"h":329},
	"sourceSize": {"w":329,"h":329},
	"pivot": {"x":0.5,"y":0.5}
},
{
	"filename": "Alien-Falling_00009",
	"frame": {"x":1325,"y":1,"w":329,"h":329},
	"rotated": false,
	"trimmed": false,
	"spriteSourceSize": {"x":0,"y":0,"w":329,"h":329},
	"sourceSize": {"w":329,"h":329},
	"pivot": {"x":0.5,"y":0.5}
},
{
	"filename": "Alien-Falling_00010",
	"frame": {"x":1656,"y":1,"w":329,"h":329},
	"rotated": false,
	"trimmed": false,
	"spriteSourceSize": {"x":0,"y":0,"w":329,"h":329},
	"sourceSize": {"w":329,"h":329},
	"pivot": {"x":0.5,"y":0.5}
},
{
	"filename": "Alien-Falling_00011",
	"frame": {"x":332,"y":332,"w":329,"h":329},
	"rotated": false,
	"trimmed": false,
	"spriteSourceSize": {"x":0,"y":0,"w":329,"h":329},
	"sourceSize": {"w":329,"h":329},
	"pivot": {"x":0.5,"y":0.5}
},
{
	"filename": "Alien-Falling_00012",
	"frame": {"x":332,"y":663,"w":329,"h":329},
	"rotated": false,
	"trimmed": false,
	"spriteSourceSize": {"x":0,"y":0,"w":329,"h":329},
	"sourceSize": {"w":329,"h":329},
	"pivot": {"x":0.5,"y":0.5}
},
{
	"filename": "Alien-Falling_00013",
	"frame": {"x":332,"y":994,"w":329,"h":329},
	"rotated": false,
	"trimmed": false,
	"spriteSourceSize": {"x":0,"y":0,"w":329,"h":329},
	"sourceSize": {"w":329,"h":329},
	"pivot": {"x":0.5,"y":0.5}
},
{
	"filename": "Alien-Falling_00014",
	"frame": {"x":332,"y":1325,"w":329,"h":329},
	"rotated": false,
	"trimmed": false,
	"spriteSourceSize": {"x":0,"y":0,"w":329,"h":329},
	"sourceSize": {"w":329,"h":329},
	"pivot": {"x":0.5,"y":0.5}
},
{
	"filename": "Alien-Falling_00015",
	"frame": {"x":332,"y":1656,"w":329,"h":329},
	"rotated": false,
	"trimmed": false,
	"spriteSourceSize": {"x":0,"y":0,"w":329,"h":329},
	"sourceSize": {"w":329,"h":329},
	"pivot": {"x":0.5,"y":0.5}
},
{
	"filename": "Alien-Falling_00016",
	"frame": {"x":663,"y":332,"w":329,"h":329},
	"rotated": false,
	"trimmed": false,
	"spriteSourceSize": {"x":0,"y":0,"w":329,"h":329},
	"sourceSize": {"w":329,"h":329},
	"pivot": {"x":0.5,"y":0.5}
},
{
	"filename": "Alien-Falling_00017",
	"frame": {"x":994,"y":332,"w":329,"h":329},
	"rotated": false,
	"trimmed": false,
	"spriteSourceSize": {"x":0,"y":0,"w":329,"h":329},
	"sourceSize": {"w":329,"h":329},
	"pivot": {"x":0.5,"y":0.5}
},
{
	"filename": "Alien-Falling_00018",
	"frame": {"x":1325,"y":332,"w":329,"h":329},
	"rotated": false,
	"trimmed": false,
	"spriteSourceSize": {"x":0,"y":0,"w":329,"h":329},
	"sourceSize": {"w":329,"h":329},
	"pivot": {"x":0.5,"y":0.5}
},
{
	"filename": "Alien-Falling_00019",
	"frame": {"x":1656,"y":332,"w":329,"h":329},
	"rotated": false,
	"trimmed": false,
	"spriteSourceSize": {"x":0,"y":0,"w":329,"h":329},
	"sourceSize": {"w":329,"h":329},
	"pivot": {"x":0.5,"y":0.5}
},
{
	"filename": "Alien-Falling_00020",
	"frame": {"x":663,"y":663,"w":329,"h":329},
	"rotated": false,
	"trimmed": false,
	"spriteSourceSize": {"x":0,"y":0,"w":329,"h":329},
	"sourceSize": {"w":329,"h":329},
	"pivot": {"x":0.5,"y":0.5}
},
{
	"filename": "Alien-Falling_00021",
	"frame": {"x":663,"y":994,"w":329,"h":329},
	"rotated": false,
	"trimmed": false,
	"spriteSourceSize": {"x":0,"y":0,"w":329,"h":329},
	"sourceSize": {"w":329,"h":329},
	"pivot": {"x":0.5,"y":0.5}
},
{
	"filename": "Alien-Falling_00022",
	"frame": {"x":663,"y":1325,"w":329,"h":329},
	"rotated": false,
	"trimmed": false,
	"spriteSourceSize": {"x":0,"y":0,"w":329,"h":329},
	"sourceSize": {"w":329,"h":329},
	"pivot": {"x":0.5,"y":0.5}
},
{
	"filename": "Alien-Falling_00023",
	"frame": {"x":663,"y":1656,"w":329,"h":329},
	"rotated": false,
	"trimmed": false,
	"spriteSourceSize": {"x":0,"y":0,"w":329,"h":329},
	"sourceSize": {"w":329,"h":329},
	"pivot": {"x":0.5,"y":0.5}
},
{
	"filename": "Alien-Falling_00024",
	"frame": {"x":994,"y":663,"w":329,"h":329},
	"rotated": false,
	"trimmed": false,
	"spriteSourceSize": {"x":0,"y":0,"w":329,"h":329},
	"sourceSize": {"w":329,"h":329},
	"pivot": {"x":0.5,"y":0.5}
},
{
	"filename": "Alien-Falling_00025",
	"frame": {"x":1325,"y":663,"w":329,"h":329},
	"rotated": false,
	"trimmed": false,
	"spriteSourceSize": {"x":0,"y":0,"w":329,"h":329},
	"sourceSize": {"w":329,"h":329},
	"pivot": {"x":0.5,"y":0.5}
},
{
	"filename": "Alien-Falling_00026",
	"frame": {"x":1656,"y":663,"w":329,"h":329},
	"rotated": false,
	"trimmed": false,
	"spriteSourceSize": {"x":0,"y":0,"w":329,"h":329},
	"sourceSize": {"w":329,"h":329},
	"pivot": {"x":0.5,"y":0.5}
},
{
	"filename": "Alien-Falling_00027",
	"frame": {"x":994,"y":994,"w":329,"h":329},
	"rotated": false,
	"trimmed": false,
	"spriteSourceSize": {"x":0,"y":0,"w":329,"h":329},
	"sourceSize": {"w":329,"h":329},
	"pivot": {"x":0.5,"y":0.5}
},
{
	"filename": "Alien-Falling_00028",
	"frame": {"x":994,"y":1325,"w":329,"h":329},
	"rotated": false,
	"trimmed": false,
	"spriteSourceSize": {"x":0,"y":0,"w":329,"h":329},
	"sourceSize": {"w":329,"h":329},
	"pivot": {"x":0.5,"y":0.5}
},
{
	"filename": "Alien-Falling_00029",
	"frame": {"x":994,"y":1656,"w":329,"h":329},
	"rotated": false,
	"trimmed": false,
	"spriteSourceSize": {"x":0,"y":0,"w":329,"h":329},
	"sourceSize": {"w":329,"h":329},
	"pivot": {"x":0.5,"y":0.5}
},
{
	"filename": "Alien-Falling_00030",
	"frame": {"x":1325,"y":994,"w":329,"h":329},
	"rotated": false,
	"trimmed": false,
	"spriteSourceSize": {"x":0,"y":0,"w":329,"h":329},
	"sourceSize": {"w":329,"h":329},
	"pivot": {"x":0.5,"y":0.5}
},
{
	"filename": "Alien-Falling_00031",
	"frame": {"x":1656,"y":994,"w":329,"h":329},
	"rotated": false,
	"trimmed": false,
	"spriteSourceSize": {"x":0,"y":0,"w":329,"h":329},
	"sourceSize": {"w":329,"h":329},
	"pivot": {"x":0.5,"y":0.5}
},
{
	"filename": "Alien-Falling_00032",
	"frame": {"x":1325,"y":1325,"w":329,"h":329},
	"rotated": false,
	"trimmed": false,
	"spriteSourceSize": {"x":0,"y":0,"w":329,"h":329},
	"sourceSize": {"w":329,"h":329},
	"pivot": {"x":0.5,"y":0.5}
},
{
	"filename": "Alien-Falling_00033",
	"frame": {"x":1325,"y":1656,"w":329,"h":329},
	"rotated": false,
	"trimmed": false,
	"spriteSourceSize": {"x":0,"y":0,"w":329,"h":329},
	"sourceSize": {"w":329,"h":329},
	"pivot": {"x":0.5,"y":0.5}
},
{
	"filename": "Alien-Falling_00034",
	"frame": {"x":1656,"y":1325,"w":329,"h":329},
	"rotated": false,
	"trimmed": false,
	"spriteSourceSize": {"x":0,"y":0,"w":329,"h":329},
	"sourceSize": {"w":329,"h":329},
	"pivot": {"x":0.5,"y":0.5}
},
{
	"filename": "Alien-Falling_00035",
	"frame": {"x":1656,"y":1656,"w":329,"h":329},
	"rotated": false,
	"trimmed": false,
	"spriteSourceSize": {"x":0,"y":0,"w":329,"h":329},
	"sourceSize": {"w":329,"h":329},
	"pivot": {"x":0.5,"y":0.5}
}],
"meta": {
	"app": "https://www.codeandweb.com/texturepacker",
	"version": "1.0",
	"image": "Alien2-falling",
	"format": "RGBA8888",
	"size": {"w":1986,"h":1986},
	"scale": "0.7",
	"smartupdate": "$TexturePacker:SmartUpdate:471c029fc8d48219d773e9c80d2e0a1f:19e26edea091919ef07686df6be38533:1143a403bc811728e8e4f6eb20801dfe$"
}
}
