{"frames": [

{
	"filename": "Alien-Destroyed_00000",
	"frame": {"x":1388,"y":1,"w":321,"h":326},
	"rotated": false,
	"trimmed": true,
	"spriteSourceSize": {"x":66,"y":123,"w":321,"h":326},
	"sourceSize": {"w":468,"h":565},
	"pivot": {"x":0.5,"y":0.5}
},
{
	"filename": "Alien-Destroyed_00001",
	"frame": {"x":1308,"y":903,"w":406,"h":445},
	"rotated": false,
	"trimmed": true,
	"spriteSourceSize": {"x":27,"y":87,"w":406,"h":445},
	"sourceSize": {"w":468,"h":565},
	"pivot": {"x":0.5,"y":0.5}
},
{
	"filename": "Alien-Destroyed_00002",
	"frame": {"x":1,"y":1,"w":468,"h":506},
	"rotated": false,
	"trimmed": true,
	"spriteSourceSize": {"x":0,"y":38,"w":468,"h":506},
	"sourceSize": {"w":468,"h":565},
	"pivot": {"x":0.5,"y":0.5}
},
{
	"filename": "Alien-Destroyed_00003",
	"frame": {"x":918,"y":1,"w":468,"h":458},
	"rotated": false,
	"trimmed": true,
	"spriteSourceSize": {"x":0,"y":19,"w":468,"h":458},
	"sourceSize": {"w":468,"h":565},
	"pivot": {"x":0.5,"y":0.5}
},
{
	"filename": "Alien-Destroyed_00004",
	"frame": {"x":471,"y":1,"w":445,"h":494},
	"rotated": false,
	"trimmed": true,
	"spriteSourceSize": {"x":23,"y":55,"w":445,"h":494},
	"sourceSize": {"w":468,"h":565},
	"pivot": {"x":0.5,"y":0.5}
},
{
	"filename": "Alien-Destroyed_00005",
	"frame": {"x":1,"y":1024,"w":430,"h":461},
	"rotated": false,
	"trimmed": true,
	"spriteSourceSize": {"x":13,"y":27,"w":430,"h":461},
	"sourceSize": {"w":468,"h":565},
	"pivot": {"x":0.5,"y":0.5}
},
{
	"filename": "Alien-Destroyed_00006",
	"frame": {"x":918,"y":461,"w":461,"h":440},
	"rotated": false,
	"trimmed": true,
	"spriteSourceSize": {"x":0,"y":37,"w":461,"h":440},
	"sourceSize": {"w":468,"h":565},
	"pivot": {"x":0.5,"y":0.5}
},
{
	"filename": "Alien-Destroyed_00007",
	"frame": {"x":441,"y":965,"w":435,"h":430},
	"rotated": false,
	"trimmed": true,
	"spriteSourceSize": {"x":11,"y":25,"w":435,"h":430},
	"sourceSize": {"w":468,"h":565},
	"pivot": {"x":0.5,"y":0.5}
},
{
	"filename": "Alien-Destroyed_00008",
	"frame": {"x":878,"y":1350,"w":438,"h":380},
	"rotated": false,
	"trimmed": true,
	"spriteSourceSize": {"x":0,"y":22,"w":438,"h":380},
	"sourceSize": {"w":468,"h":565},
	"pivot": {"x":0.5,"y":0.5}
},
{
	"filename": "Alien-Destroyed_00009",
	"frame": {"x":441,"y":509,"w":434,"h":454},
	"rotated": false,
	"trimmed": true,
	"spriteSourceSize": {"x":11,"y":19,"w":434,"h":454},
	"sourceSize": {"w":468,"h":565},
	"pivot": {"x":0.5,"y":0.5}
},
{
	"filename": "Alien-Destroyed_00010",
	"frame": {"x":1,"y":509,"w":438,"h":513},
	"rotated": false,
	"trimmed": true,
	"spriteSourceSize": {"x":0,"y":31,"w":438,"h":513},
	"sourceSize": {"w":468,"h":565},
	"pivot": {"x":0.5,"y":0.5}
},
{
	"filename": "Alien-Destroyed_00011",
	"frame": {"x":878,"y":903,"w":428,"h":436},
	"rotated": false,
	"trimmed": true,
	"spriteSourceSize": {"x":0,"y":97,"w":428,"h":436},
	"sourceSize": {"w":468,"h":565},
	"pivot": {"x":0.5,"y":0.5}
},
{
	"filename": "Alien-Destroyed_00012",
	"frame": {"x":1318,"y":1350,"w":352,"h":253},
	"rotated": false,
	"trimmed": true,
	"spriteSourceSize": {"x":49,"y":247,"w":352,"h":253},
	"sourceSize": {"w":468,"h":565},
	"pivot": {"x":0.5,"y":0.5}
},
{
	"filename": "Alien-Destroyed_00013",
	"frame": {"x":1,"y":1487,"w":249,"h":187},
	"rotated": false,
	"trimmed": true,
	"spriteSourceSize": {"x":101,"y":266,"w":249,"h":187},
	"sourceSize": {"w":468,"h":565},
	"pivot": {"x":0.5,"y":0.5}
},
{
	"filename": "Alien-Destroyed_00014",
	"frame": {"x":252,"y":1487,"w":216,"h":177},
	"rotated": false,
	"trimmed": true,
	"spriteSourceSize": {"x":120,"y":239,"w":216,"h":177},
	"sourceSize": {"w":468,"h":565},
	"pivot": {"x":0.5,"y":0.5}
},
{
	"filename": "Alien-Destroyed_00015",
	"frame": {"x":1388,"y":329,"w":141,"h":133},
	"rotated": false,
	"trimmed": true,
	"spriteSourceSize": {"x":153,"y":237,"w":141,"h":133},
	"sourceSize": {"w":468,"h":565},
	"pivot": {"x":0.5,"y":0.5}
}],
"meta": {
	"app": "https://www.codeandweb.com/texturepacker",
	"version": "1.0",
	"image": "Alien-3_Destroyed",
	"format": "RGBA8888",
	"size": {"w":1731,"h":1731},
	"scale": "0.7",
	"smartupdate": "$TexturePacker:SmartUpdate:d2d59fcaae53b42e3bf83061294f4eff:12c45cf6d5e46683a6c3161b3ba48531:af0ebf73aca849a6a52130db57f6ed4a$"
}
}
