{"frames": [

{
	"filename": "Alien-Walking_00000",
	"frame": {"x":1,"y":1070,"w":284,"h":213},
	"rotated": false,
	"trimmed": true,
	"spriteSourceSize": {"x":25,"y":71,"w":284,"h":213},
	"sourceSize": {"w":329,"h":329},
	"pivot": {"x":0.5,"y":0.5}
},
{
	"filename": "Alien-Walking_00001",
	"frame": {"x":872,"y":1,"w":285,"h":209},
	"rotated": false,
	"trimmed": true,
	"spriteSourceSize": {"x":23,"y":75,"w":285,"h":209},
	"sourceSize": {"w":329,"h":329},
	"pivot": {"x":0.5,"y":0.5}
},
{
	"filename": "Alien-Walking_00002",
	"frame": {"x":573,"y":635,"w":284,"h":205},
	"rotated": false,
	"trimmed": true,
	"spriteSourceSize": {"x":22,"y":79,"w":284,"h":205},
	"sourceSize": {"w":329,"h":329},
	"pivot": {"x":0.5,"y":0.5}
},
{
	"filename": "Alien-Walking_00003",
	"frame": {"x":583,"y":212,"w":285,"h":208},
	"rotated": false,
	"trimmed": true,
	"spriteSourceSize": {"x":20,"y":76,"w":285,"h":208},
	"sourceSize": {"w":329,"h":329},
	"pivot": {"x":0.5,"y":0.5}
},
{
	"filename": "Alien-Walking_00004",
	"frame": {"x":287,"y":1271,"w":281,"h":211},
	"rotated": false,
	"trimmed": true,
	"spriteSourceSize": {"x":21,"y":73,"w":281,"h":211},
	"sourceSize": {"w":329,"h":329},
	"pivot": {"x":0.5,"y":0.5}
},
{
	"filename": "Alien-Walking_00005",
	"frame": {"x":288,"y":842,"w":282,"h":213},
	"rotated": false,
	"trimmed": true,
	"spriteSourceSize": {"x":18,"y":71,"w":282,"h":213},
	"sourceSize": {"w":329,"h":329},
	"pivot": {"x":0.5,"y":0.5}
},
{
	"filename": "Alien-Walking_00006",
	"frame": {"x":1159,"y":1,"w":285,"h":210},
	"rotated": false,
	"trimmed": true,
	"spriteSourceSize": {"x":15,"y":75,"w":285,"h":210},
	"sourceSize": {"w":329,"h":329},
	"pivot": {"x":0.5,"y":0.5}
},
{
	"filename": "Alien-Walking_00007",
	"frame": {"x":293,"y":418,"w":285,"h":207},
	"rotated": false,
	"trimmed": true,
	"spriteSourceSize": {"x":13,"y":79,"w":285,"h":207},
	"sourceSize": {"w":329,"h":329},
	"pivot": {"x":0.5,"y":0.5}
},
{
	"filename": "Alien-Walking_00008",
	"frame": {"x":867,"y":423,"w":284,"h":210},
	"rotated": false,
	"trimmed": true,
	"spriteSourceSize": {"x":12,"y":76,"w":284,"h":210},
	"sourceSize": {"w":329,"h":329},
	"pivot": {"x":0.5,"y":0.5}
},
{
	"filename": "Alien-Walking_00009",
	"frame": {"x":858,"y":1266,"w":280,"h":212},
	"rotated": false,
	"trimmed": true,
	"spriteSourceSize": {"x":13,"y":73,"w":280,"h":212},
	"sourceSize": {"w":329,"h":329},
	"pivot": {"x":0.5,"y":0.5}
},
{
	"filename": "Alien-Walking_00010",
	"frame": {"x":288,"y":627,"w":283,"h":213},
	"rotated": false,
	"trimmed": true,
	"spriteSourceSize": {"x":10,"y":71,"w":283,"h":213},
	"sourceSize": {"w":329,"h":329},
	"pivot": {"x":0.5,"y":0.5}
},
{
	"filename": "Alien-Walking_00011",
	"frame": {"x":584,"y":1,"w":286,"h":209},
	"rotated": false,
	"trimmed": true,
	"spriteSourceSize": {"x":6,"y":75,"w":286,"h":209},
	"sourceSize": {"w":329,"h":329},
	"pivot": {"x":0.5,"y":0.5}
},
{
	"filename": "Alien-Walking_00012",
	"frame": {"x":294,"y":211,"w":287,"h":205},
	"rotated": false,
	"trimmed": true,
	"spriteSourceSize": {"x":5,"y":79,"w":287,"h":205},
	"sourceSize": {"w":329,"h":329},
	"pivot": {"x":0.5,"y":0.5}
},
{
	"filename": "Alien-Walking_00013",
	"frame": {"x":294,"y":1,"w":288,"h":208},
	"rotated": false,
	"trimmed": true,
	"spriteSourceSize": {"x":3,"y":76,"w":288,"h":208},
	"sourceSize": {"w":329,"h":329},
	"pivot": {"x":0.5,"y":0.5}
},
{
	"filename": "Alien-Walking_00014",
	"frame": {"x":1,"y":214,"w":290,"h":209},
	"rotated": false,
	"trimmed": true,
	"spriteSourceSize": {"x":1,"y":75,"w":290,"h":209},
	"sourceSize": {"w":329,"h":329},
	"pivot": {"x":0.5,"y":0.5}
},
{
	"filename": "Alien-Walking_00015",
	"frame": {"x":1,"y":1,"w":291,"h":211},
	"rotated": false,
	"trimmed": true,
	"spriteSourceSize": {"x":0,"y":73,"w":291,"h":211},
	"sourceSize": {"w":329,"h":329},
	"pivot": {"x":0.5,"y":0.5}
},
{
	"filename": "Alien-Walking_00016",
	"frame": {"x":1,"y":425,"w":285,"h":213},
	"rotated": false,
	"trimmed": true,
	"spriteSourceSize": {"x":15,"y":71,"w":285,"h":213},
	"sourceSize": {"w":329,"h":329},
	"pivot": {"x":0.5,"y":0.5}
},
{
	"filename": "Alien-Walking_00017",
	"frame": {"x":859,"y":635,"w":284,"h":209},
	"rotated": false,
	"trimmed": true,
	"spriteSourceSize": {"x":30,"y":75,"w":284,"h":209},
	"sourceSize": {"w":329,"h":329},
	"pivot": {"x":0.5,"y":0.5}
},
{
	"filename": "Alien-Walking_00018",
	"frame": {"x":1144,"y":849,"w":284,"h":206},
	"rotated": false,
	"trimmed": true,
	"spriteSourceSize": {"x":31,"y":79,"w":284,"h":206},
	"sourceSize": {"w":329,"h":329},
	"pivot": {"x":0.5,"y":0.5}
},
{
	"filename": "Alien-Walking_00019",
	"frame": {"x":870,"y":212,"w":285,"h":209},
	"rotated": false,
	"trimmed": true,
	"spriteSourceSize": {"x":31,"y":77,"w":285,"h":209},
	"sourceSize": {"w":329,"h":329},
	"pivot": {"x":0.5,"y":0.5}
},
{
	"filename": "Alien-Walking_00020",
	"frame": {"x":1153,"y":423,"w":284,"h":211},
	"rotated": false,
	"trimmed": true,
	"spriteSourceSize": {"x":32,"y":75,"w":284,"h":211},
	"sourceSize": {"w":329,"h":329},
	"pivot": {"x":0.5,"y":0.5}
},
{
	"filename": "Alien-Walking_00021",
	"frame": {"x":1140,"y":1267,"w":280,"h":212},
	"rotated": false,
	"trimmed": true,
	"spriteSourceSize": {"x":36,"y":73,"w":280,"h":212},
	"sourceSize": {"w":329,"h":329},
	"pivot": {"x":0.5,"y":0.5}
},
{
	"filename": "Alien-Walking_00022",
	"frame": {"x":288,"y":1057,"w":282,"h":212},
	"rotated": false,
	"trimmed": true,
	"spriteSourceSize": {"x":35,"y":72,"w":282,"h":212},
	"sourceSize": {"w":329,"h":329},
	"pivot": {"x":0.5,"y":0.5}
},
{
	"filename": "Alien-Walking_00023",
	"frame": {"x":1,"y":640,"w":285,"h":213},
	"rotated": false,
	"trimmed": true,
	"spriteSourceSize": {"x":34,"y":71,"w":285,"h":213},
	"sourceSize": {"w":329,"h":329},
	"pivot": {"x":0.5,"y":0.5}
},
{
	"filename": "Alien-Walking_00024",
	"frame": {"x":572,"y":842,"w":284,"h":211},
	"rotated": false,
	"trimmed": true,
	"spriteSourceSize": {"x":35,"y":73,"w":284,"h":211},
	"sourceSize": {"w":329,"h":329},
	"pivot": {"x":0.5,"y":0.5}
},
{
	"filename": "Alien-Walking_00025",
	"frame": {"x":858,"y":846,"w":284,"h":208},
	"rotated": false,
	"trimmed": true,
	"spriteSourceSize": {"x":36,"y":76,"w":284,"h":208},
	"sourceSize": {"w":329,"h":329},
	"pivot": {"x":0.5,"y":0.5}
},
{
	"filename": "Alien-Walking_00026",
	"frame": {"x":570,"y":1475,"w":280,"h":205},
	"rotated": false,
	"trimmed": true,
	"spriteSourceSize": {"x":39,"y":79,"w":280,"h":205},
	"sourceSize": {"w":329,"h":329},
	"pivot": {"x":0.5,"y":0.5}
},
{
	"filename": "Alien-Walking_00027",
	"frame": {"x":1144,"y":1057,"w":283,"h":208},
	"rotated": false,
	"trimmed": true,
	"spriteSourceSize": {"x":38,"y":76,"w":283,"h":208},
	"sourceSize": {"w":329,"h":329},
	"pivot": {"x":0.5,"y":0.5}
},
{
	"filename": "Alien-Walking_00028",
	"frame": {"x":1145,"y":636,"w":284,"h":211},
	"rotated": false,
	"trimmed": true,
	"spriteSourceSize": {"x":38,"y":73,"w":284,"h":211},
	"sourceSize": {"w":329,"h":329},
	"pivot": {"x":0.5,"y":0.5}
},
{
	"filename": "Alien-Walking_00029",
	"frame": {"x":1,"y":855,"w":285,"h":213},
	"rotated": false,
	"trimmed": true,
	"spriteSourceSize": {"x":38,"y":71,"w":285,"h":213},
	"sourceSize": {"w":329,"h":329},
	"pivot": {"x":0.5,"y":0.5}
},
{
	"filename": "Alien-Walking_00030",
	"frame": {"x":572,"y":1055,"w":284,"h":211},
	"rotated": false,
	"trimmed": true,
	"spriteSourceSize": {"x":39,"y":73,"w":284,"h":211},
	"sourceSize": {"w":329,"h":329},
	"pivot": {"x":0.5,"y":0.5}
},
{
	"filename": "Alien-Walking_00031",
	"frame": {"x":858,"y":1056,"w":284,"h":208},
	"rotated": false,
	"trimmed": true,
	"spriteSourceSize": {"x":40,"y":76,"w":284,"h":208},
	"sourceSize": {"w":329,"h":329},
	"pivot": {"x":0.5,"y":0.5}
},
{
	"filename": "Alien-Walking_00032",
	"frame": {"x":572,"y":1268,"w":284,"h":205},
	"rotated": false,
	"trimmed": true,
	"spriteSourceSize": {"x":41,"y":79,"w":284,"h":205},
	"sourceSize": {"w":329,"h":329},
	"pivot": {"x":0.5,"y":0.5}
},
{
	"filename": "Alien-Walking_00033",
	"frame": {"x":1157,"y":213,"w":285,"h":208},
	"rotated": false,
	"trimmed": true,
	"spriteSourceSize": {"x":41,"y":76,"w":285,"h":208},
	"sourceSize": {"w":329,"h":329},
	"pivot": {"x":0.5,"y":0.5}
},
{
	"filename": "Alien-Walking_00034",
	"frame": {"x":580,"y":422,"w":285,"h":211},
	"rotated": false,
	"trimmed": true,
	"spriteSourceSize": {"x":33,"y":73,"w":285,"h":211},
	"sourceSize": {"w":329,"h":329},
	"pivot": {"x":0.5,"y":0.5}
},
{
	"filename": "Alien-Walking_00035",
	"frame": {"x":1,"y":1285,"w":284,"h":213},
	"rotated": false,
	"trimmed": true,
	"spriteSourceSize": {"x":25,"y":71,"w":284,"h":213},
	"sourceSize": {"w":329,"h":329},
	"pivot": {"x":0.5,"y":0.5}
}],
"meta": {
	"app": "https://www.codeandweb.com/texturepacker",
	"version": "1.0",
	"image": "Alien2-Walking",
	"format": "RGBA8888",
	"size": {"w":1681,"h":1681},
	"scale": "0.7",
	"smartupdate": "$TexturePacker:SmartUpdate:28c1198ebad6aead865567ef11204d25:6887bcca70a19a8b40f642095f2ae5de:5bd20c5b9cb866e7931f1adb51edf10c$"
}
}
