{"frames": [

{
	"filename": "Alien-Destroyed_00000",
	"frame": {"x":1,"y":1410,"w":306,"h":227},
	"rotated": false,
	"trimmed": true,
	"spriteSourceSize": {"x":93,"y":178,"w":306,"h":227},
	"sourceSize": {"w":468,"h":565},
	"pivot": {"x":0.5,"y":0.5}
},
{
	"filename": "Alien-Destroyed_00001",
	"frame": {"x":874,"y":828,"w":392,"h":387},
	"rotated": false,
	"trimmed": true,
	"spriteSourceSize": {"x":42,"y":145,"w":392,"h":387},
	"sourceSize": {"w":468,"h":565},
	"pivot": {"x":0.5,"y":0.5}
},
{
	"filename": "Alien-Destroyed_00002",
	"frame": {"x":441,"y":1,"w":464,"h":427},
	"rotated": false,
	"trimmed": true,
	"spriteSourceSize": {"x":0,"y":106,"w":464,"h":427},
	"sourceSize": {"w":468,"h":565},
	"pivot": {"x":0.5,"y":0.5}
},
{
	"filename": "Alien-Destroyed_00003",
	"frame": {"x":1268,"y":828,"w":383,"h":445},
	"rotated": false,
	"trimmed": true,
	"spriteSourceSize": {"x":35,"y":41,"w":383,"h":445},
	"sourceSize": {"w":468,"h":565},
	"pivot": {"x":0.5,"y":0.5}
},
{
	"filename": "Alien-Destroyed_00004",
	"frame": {"x":907,"y":401,"w":426,"h":425},
	"rotated": false,
	"trimmed": true,
	"spriteSourceSize": {"x":23,"y":55,"w":426,"h":425},
	"sourceSize": {"w":468,"h":565},
	"pivot": {"x":0.5,"y":0.5}
},
{
	"filename": "Alien-Destroyed_00005",
	"frame": {"x":431,"y":1212,"w":429,"h":410},
	"rotated": false,
	"trimmed": true,
	"spriteSourceSize": {"x":13,"y":27,"w":429,"h":410},
	"sourceSize": {"w":468,"h":565},
	"pivot": {"x":0.5,"y":0.5}
},
{
	"filename": "Alien-Destroyed_00006",
	"frame": {"x":907,"y":1,"w":461,"h":398},
	"rotated": false,
	"trimmed": true,
	"spriteSourceSize": {"x":0,"y":37,"w":461,"h":398},
	"sourceSize": {"w":468,"h":565},
	"pivot": {"x":0.5,"y":0.5}
},
{
	"filename": "Alien-Destroyed_00007",
	"frame": {"x":437,"y":810,"w":435,"h":400},
	"rotated": false,
	"trimmed": true,
	"spriteSourceSize": {"x":11,"y":25,"w":435,"h":400},
	"sourceSize": {"w":468,"h":565},
	"pivot": {"x":0.5,"y":0.5}
},
{
	"filename": "Alien-Destroyed_00008",
	"frame": {"x":441,"y":430,"w":438,"h":378},
	"rotated": false,
	"trimmed": true,
	"spriteSourceSize": {"x":0,"y":22,"w":438,"h":378},
	"sourceSize": {"w":468,"h":565},
	"pivot": {"x":0.5,"y":0.5}
},
{
	"filename": "Alien-Destroyed_00009",
	"frame": {"x":1,"y":516,"w":434,"h":454},
	"rotated": false,
	"trimmed": true,
	"spriteSourceSize": {"x":11,"y":19,"w":434,"h":454},
	"sourceSize": {"w":468,"h":565},
	"pivot": {"x":0.5,"y":0.5}
},
{
	"filename": "Alien-Destroyed_00010",
	"frame": {"x":1,"y":1,"w":438,"h":513},
	"rotated": false,
	"trimmed": true,
	"spriteSourceSize": {"x":0,"y":31,"w":438,"h":513},
	"sourceSize": {"w":468,"h":565},
	"pivot": {"x":0.5,"y":0.5}
},
{
	"filename": "Alien-Destroyed_00011",
	"frame": {"x":1,"y":972,"w":428,"h":436},
	"rotated": false,
	"trimmed": true,
	"spriteSourceSize": {"x":0,"y":97,"w":428,"h":436},
	"sourceSize": {"w":468,"h":565},
	"pivot": {"x":0.5,"y":0.5}
},
{
	"filename": "Alien-Destroyed_00012",
	"frame": {"x":862,"y":1217,"w":352,"h":253},
	"rotated": false,
	"trimmed": true,
	"spriteSourceSize": {"x":49,"y":247,"w":352,"h":253},
	"sourceSize": {"w":468,"h":565},
	"pivot": {"x":0.5,"y":0.5}
},
{
	"filename": "Alien-Destroyed_00013",
	"frame": {"x":1370,"y":1,"w":249,"h":182},
	"rotated": false,
	"trimmed": true,
	"spriteSourceSize": {"x":101,"y":271,"w":249,"h":182},
	"sourceSize": {"w":468,"h":565},
	"pivot": {"x":0.5,"y":0.5}
},
{
	"filename": "Alien-Destroyed_00014",
	"frame": {"x":1370,"y":185,"w":216,"h":177},
	"rotated": false,
	"trimmed": true,
	"spriteSourceSize": {"x":120,"y":239,"w":216,"h":177},
	"sourceSize": {"w":468,"h":565},
	"pivot": {"x":0.5,"y":0.5}
},
{
	"filename": "Alien-Destroyed_00015",
	"frame": {"x":862,"y":1472,"w":141,"h":133},
	"rotated": false,
	"trimmed": true,
	"spriteSourceSize": {"x":153,"y":237,"w":141,"h":133},
	"sourceSize": {"w":468,"h":565},
	"pivot": {"x":0.5,"y":0.5}
}],
"meta": {
	"app": "https://www.codeandweb.com/texturepacker",
	"version": "1.0",
	"image": "Alien-2_Destroyed",
	"format": "RGBA8888",
	"size": {"w":1652,"h":1652},
	"scale": "0.7",
	"smartupdate": "$TexturePacker:SmartUpdate:a35082d8a6788b1d2bc6b53f09cde7f3:e6cda85ad09b0226aeb4bf2e16fa533f:af61b4d892b30e402ca76e722db9976b$"
}
}
