{"frames": [

{
	"filename": "Alien-Walking_00000",
	"frame": {"x":1499,"y":263,"w":275,"h":260},
	"rotated": false,
	"trimmed": true,
	"spriteSourceSize": {"x":14,"y":35,"w":275,"h":260},
	"sourceSize": {"w":306,"h":306},
	"pivot": {"x":0.5,"y":0.5}
},
{
	"filename": "Alien-Walking_00001",
	"frame": {"x":1177,"y":1072,"w":283,"h":263},
	"rotated": false,
	"trimmed": true,
	"spriteSourceSize": {"x":11,"y":32,"w":283,"h":263},
	"sourceSize": {"w":306,"h":306},
	"pivot": {"x":0.5,"y":0.5}
},
{
	"filename": "Alien-Walking_00002",
	"frame": {"x":896,"y":805,"w":290,"h":265},
	"rotated": false,
	"trimmed": true,
	"spriteSourceSize": {"x":8,"y":30,"w":290,"h":265},
	"sourceSize": {"w":306,"h":306},
	"pivot": {"x":0.5,"y":0.5}
},
{
	"filename": "Alien-Walking_00003",
	"frame": {"x":610,"y":536,"w":298,"h":267},
	"rotated": false,
	"trimmed": true,
	"spriteSourceSize": {"x":4,"y":28,"w":298,"h":267},
	"sourceSize": {"w":306,"h":306},
	"pivot": {"x":0.5,"y":0.5}
},
{
	"filename": "Alien-Walking_00004",
	"frame": {"x":1,"y":539,"w":303,"h":268},
	"rotated": false,
	"trimmed": true,
	"spriteSourceSize": {"x":2,"y":27,"w":303,"h":268},
	"sourceSize": {"w":306,"h":306},
	"pivot": {"x":0.5,"y":0.5}
},
{
	"filename": "Alien-Walking_00005",
	"frame": {"x":909,"y":265,"w":297,"h":266},
	"rotated": false,
	"trimmed": true,
	"spriteSourceSize": {"x":4,"y":29,"w":297,"h":266},
	"sourceSize": {"w":306,"h":306},
	"pivot": {"x":0.5,"y":0.5}
},
{
	"filename": "Alien-Walking_00006",
	"frame": {"x":1,"y":1077,"w":290,"h":264},
	"rotated": false,
	"trimmed": true,
	"spriteSourceSize": {"x":8,"y":31,"w":290,"h":264},
	"sourceSize": {"w":306,"h":306},
	"pivot": {"x":0.5,"y":0.5}
},
{
	"filename": "Alien-Walking_00007",
	"frame": {"x":883,"y":1335,"w":283,"h":263},
	"rotated": false,
	"trimmed": true,
	"spriteSourceSize": {"x":11,"y":32,"w":283,"h":263},
	"sourceSize": {"w":306,"h":306},
	"pivot": {"x":0.5,"y":0.5}
},
{
	"filename": "Alien-Walking_00008",
	"frame": {"x":1453,"y":1337,"w":275,"h":261},
	"rotated": false,
	"trimmed": true,
	"spriteSourceSize": {"x":14,"y":34,"w":275,"h":261},
	"sourceSize": {"w":306,"h":306},
	"pivot": {"x":0.5,"y":0.5}
},
{
	"filename": "Alien-Walking_00009",
	"frame": {"x":1462,"y":1058,"w":283,"h":259},
	"rotated": false,
	"trimmed": true,
	"spriteSourceSize": {"x":11,"y":33,"w":283,"h":259},
	"sourceSize": {"w":306,"h":306},
	"pivot": {"x":0.5,"y":0.5}
},
{
	"filename": "Alien-Walking_00010",
	"frame": {"x":1209,"y":1,"w":289,"h":260},
	"rotated": false,
	"trimmed": true,
	"spriteSourceSize": {"x":8,"y":32,"w":289,"h":260},
	"sourceSize": {"w":306,"h":306},
	"pivot": {"x":0.5,"y":0.5}
},
{
	"filename": "Alien-Walking_00011",
	"frame": {"x":598,"y":805,"w":296,"h":262},
	"rotated": false,
	"trimmed": true,
	"spriteSourceSize": {"x":4,"y":30,"w":296,"h":262},
	"sourceSize": {"w":306,"h":306},
	"pivot": {"x":0.5,"y":0.5}
},
{
	"filename": "Alien-Walking_00012",
	"frame": {"x":306,"y":539,"w":302,"h":263},
	"rotated": false,
	"trimmed": true,
	"spriteSourceSize": {"x":1,"y":29,"w":302,"h":263},
	"sourceSize": {"w":306,"h":306},
	"pivot": {"x":0.5,"y":0.5}
},
{
	"filename": "Alien-Walking_00013",
	"frame": {"x":909,"y":1,"w":298,"h":262},
	"rotated": false,
	"trimmed": true,
	"spriteSourceSize": {"x":3,"y":30,"w":298,"h":262},
	"sourceSize": {"w":306,"h":306},
	"pivot": {"x":0.5,"y":0.5}
},
{
	"filename": "Alien-Walking_00014",
	"frame": {"x":883,"y":1072,"w":292,"h":261},
	"rotated": false,
	"trimmed": true,
	"spriteSourceSize": {"x":6,"y":31,"w":292,"h":261},
	"sourceSize": {"w":306,"h":306},
	"pivot": {"x":0.5,"y":0.5}
},
{
	"filename": "Alien-Walking_00015",
	"frame": {"x":1209,"y":263,"w":288,"h":260},
	"rotated": false,
	"trimmed": true,
	"spriteSourceSize": {"x":8,"y":32,"w":288,"h":260},
	"sourceSize": {"w":306,"h":306},
	"pivot": {"x":0.5,"y":0.5}
},
{
	"filename": "Alien-Walking_00016",
	"frame": {"x":1494,"y":796,"w":283,"h":258},
	"rotated": false,
	"trimmed": true,
	"spriteSourceSize": {"x":10,"y":34,"w":283,"h":258},
	"sourceSize": {"w":306,"h":306},
	"pivot": {"x":0.5,"y":0.5}
},
{
	"filename": "Alien-Walking_00017",
	"frame": {"x":1500,"y":1,"w":279,"h":259},
	"rotated": false,
	"trimmed": true,
	"spriteSourceSize": {"x":12,"y":33,"w":279,"h":259},
	"sourceSize": {"w":306,"h":306},
	"pivot": {"x":0.5,"y":0.5}
},
{
	"filename": "Alien-Walking_00018",
	"frame": {"x":578,"y":1336,"w":275,"h":263},
	"rotated": false,
	"trimmed": true,
	"spriteSourceSize": {"x":14,"y":32,"w":275,"h":263},
	"sourceSize": {"w":306,"h":306},
	"pivot": {"x":0.5,"y":0.5}
},
{
	"filename": "Alien-Walking_00019",
	"frame": {"x":598,"y":1069,"w":283,"h":265},
	"rotated": false,
	"trimmed": true,
	"spriteSourceSize": {"x":11,"y":30,"w":283,"h":265},
	"sourceSize": {"w":306,"h":306},
	"pivot": {"x":0.5,"y":0.5}
},
{
	"filename": "Alien-Walking_00020",
	"frame": {"x":306,"y":804,"w":290,"h":266},
	"rotated": false,
	"trimmed": true,
	"spriteSourceSize": {"x":8,"y":29,"w":290,"h":266},
	"sourceSize": {"w":306,"h":306},
	"pivot": {"x":0.5,"y":0.5}
},
{
	"filename": "Alien-Walking_00021",
	"frame": {"x":307,"y":266,"w":297,"h":268},
	"rotated": false,
	"trimmed": true,
	"spriteSourceSize": {"x":4,"y":27,"w":297,"h":268},
	"sourceSize": {"w":306,"h":306},
	"pivot": {"x":0.5,"y":0.5}
},
{
	"filename": "Alien-Walking_00022",
	"frame": {"x":1,"y":1,"w":304,"h":269},
	"rotated": false,
	"trimmed": true,
	"spriteSourceSize": {"x":1,"y":26,"w":304,"h":269},
	"sourceSize": {"w":306,"h":306},
	"pivot": {"x":0.5,"y":0.5}
},
{
	"filename": "Alien-Walking_00023",
	"frame": {"x":609,"y":1,"w":298,"h":268},
	"rotated": false,
	"trimmed": true,
	"spriteSourceSize": {"x":4,"y":27,"w":298,"h":268},
	"sourceSize": {"w":306,"h":306},
	"pivot": {"x":0.5,"y":0.5}
},
{
	"filename": "Alien-Walking_00024",
	"frame": {"x":1,"y":809,"w":290,"h":266},
	"rotated": false,
	"trimmed": true,
	"spriteSourceSize": {"x":8,"y":29,"w":290,"h":266},
	"sourceSize": {"w":306,"h":306},
	"pivot": {"x":0.5,"y":0.5}
},
{
	"filename": "Alien-Walking_00025",
	"frame": {"x":293,"y":1072,"w":283,"h":264},
	"rotated": false,
	"trimmed": true,
	"spriteSourceSize": {"x":11,"y":31,"w":283,"h":264},
	"sourceSize": {"w":306,"h":306},
	"pivot": {"x":0.5,"y":0.5}
},
{
	"filename": "Alien-Walking_00026",
	"frame": {"x":293,"y":1338,"w":275,"h":262},
	"rotated": false,
	"trimmed": true,
	"spriteSourceSize": {"x":14,"y":33,"w":275,"h":262},
	"sourceSize": {"w":306,"h":306},
	"pivot": {"x":0.5,"y":0.5}
},
{
	"filename": "Alien-Walking_00027",
	"frame": {"x":1168,"y":1337,"w":283,"h":261},
	"rotated": false,
	"trimmed": true,
	"spriteSourceSize": {"x":11,"y":31,"w":283,"h":261},
	"sourceSize": {"w":306,"h":306},
	"pivot": {"x":0.5,"y":0.5}
},
{
	"filename": "Alien-Walking_00028",
	"frame": {"x":1,"y":1343,"w":290,"h":262},
	"rotated": false,
	"trimmed": true,
	"spriteSourceSize": {"x":8,"y":30,"w":290,"h":262},
	"sourceSize": {"w":306,"h":306},
	"pivot": {"x":0.5,"y":0.5}
},
{
	"filename": "Alien-Walking_00029",
	"frame": {"x":606,"y":271,"w":298,"h":263},
	"rotated": false,
	"trimmed": true,
	"spriteSourceSize": {"x":5,"y":29,"w":298,"h":263},
	"sourceSize": {"w":306,"h":306},
	"pivot": {"x":0.5,"y":0.5}
},
{
	"filename": "Alien-Walking_00030",
	"frame": {"x":1,"y":272,"w":304,"h":265},
	"rotated": false,
	"trimmed": true,
	"spriteSourceSize": {"x":2,"y":27,"w":304,"h":265},
	"sourceSize": {"w":306,"h":306},
	"pivot": {"x":0.5,"y":0.5}
},
{
	"filename": "Alien-Walking_00031",
	"frame": {"x":307,"y":1,"w":300,"h":263},
	"rotated": false,
	"trimmed": true,
	"spriteSourceSize": {"x":4,"y":29,"w":300,"h":263},
	"sourceSize": {"w":306,"h":306},
	"pivot": {"x":0.5,"y":0.5}
},
{
	"filename": "Alien-Walking_00032",
	"frame": {"x":910,"y":533,"w":295,"h":262},
	"rotated": false,
	"trimmed": true,
	"spriteSourceSize": {"x":6,"y":30,"w":295,"h":262},
	"sourceSize": {"w":306,"h":306},
	"pivot": {"x":0.5,"y":0.5}
},
{
	"filename": "Alien-Walking_00033",
	"frame": {"x":1207,"y":533,"w":290,"h":261},
	"rotated": false,
	"trimmed": true,
	"spriteSourceSize": {"x":8,"y":31,"w":290,"h":261},
	"sourceSize": {"w":306,"h":306},
	"pivot": {"x":0.5,"y":0.5}
},
{
	"filename": "Alien-Walking_00034",
	"frame": {"x":1207,"y":796,"w":285,"h":260},
	"rotated": false,
	"trimmed": true,
	"spriteSourceSize": {"x":10,"y":32,"w":285,"h":260},
	"sourceSize": {"w":306,"h":306},
	"pivot": {"x":0.5,"y":0.5}
},
{
	"filename": "Alien-Walking_00035",
	"frame": {"x":1499,"y":525,"w":280,"h":259},
	"rotated": false,
	"trimmed": true,
	"spriteSourceSize": {"x":12,"y":33,"w":280,"h":259},
	"sourceSize": {"w":306,"h":306},
	"pivot": {"x":0.5,"y":0.5}
}],
"meta": {
	"app": "https://www.codeandweb.com/texturepacker",
	"version": "1.0",
	"image": "Alien-3_Walking",
	"format": "RGBA8888",
	"size": {"w":1780,"h":1780},
	"scale": "0.6",
	"smartupdate": "$TexturePacker:SmartUpdate:d3e1e1e31a44478c3eb5057385564721:cff2deed9b6ffc5f4814f86fc5213c47:4fee40ee7abe5b68b92623f9eb6c80c8$"
}
}
