{"frames": [

{
	"filename": "Character_00000",
	"frame": {"x":1,"y":1,"w":500,"h":500},
	"rotated": false,
	"trimmed": false,
	"spriteSourceSize": {"x":0,"y":0,"w":500,"h":500},
	"sourceSize": {"w":500,"h":500},
	"pivot": {"x":0.5,"y":0.5}
},
{
	"filename": "Character_00001",
	"frame": {"x":1,"y":503,"w":500,"h":500},
	"rotated": false,
	"trimmed": false,
	"spriteSourceSize": {"x":0,"y":0,"w":500,"h":500},
	"sourceSize": {"w":500,"h":500},
	"pivot": {"x":0.5,"y":0.5}
},
{
	"filename": "Character_00002",
	"frame": {"x":1,"y":1005,"w":500,"h":500},
	"rotated": false,
	"trimmed": false,
	"spriteSourceSize": {"x":0,"y":0,"w":500,"h":500},
	"sourceSize": {"w":500,"h":500},
	"pivot": {"x":0.5,"y":0.5}
},
{
	"filename": "Character_00003",
	"frame": {"x":1,"y":1507,"w":500,"h":500},
	"rotated": false,
	"trimmed": false,
	"spriteSourceSize": {"x":0,"y":0,"w":500,"h":500},
	"sourceSize": {"w":500,"h":500},
	"pivot": {"x":0.5,"y":0.5}
},
{
	"filename": "Character_00004",
	"frame": {"x":1,"y":2009,"w":500,"h":500},
	"rotated": false,
	"trimmed": false,
	"spriteSourceSize": {"x":0,"y":0,"w":500,"h":500},
	"sourceSize": {"w":500,"h":500},
	"pivot": {"x":0.5,"y":0.5}
},
{
	"filename": "Character_00005",
	"frame": {"x":1,"y":2511,"w":500,"h":500},
	"rotated": false,
	"trimmed": false,
	"spriteSourceSize": {"x":0,"y":0,"w":500,"h":500},
	"sourceSize": {"w":500,"h":500},
	"pivot": {"x":0.5,"y":0.5}
},
{
	"filename": "Character_00006",
	"frame": {"x":1,"y":3013,"w":500,"h":500},
	"rotated": false,
	"trimmed": false,
	"spriteSourceSize": {"x":0,"y":0,"w":500,"h":500},
	"sourceSize": {"w":500,"h":500},
	"pivot": {"x":0.5,"y":0.5}
},
{
	"filename": "Character_00007",
	"frame": {"x":1,"y":3515,"w":500,"h":500},
	"rotated": false,
	"trimmed": false,
	"spriteSourceSize": {"x":0,"y":0,"w":500,"h":500},
	"sourceSize": {"w":500,"h":500},
	"pivot": {"x":0.5,"y":0.5}
},
{
	"filename": "Character_00008",
	"frame": {"x":503,"y":1,"w":500,"h":500},
	"rotated": false,
	"trimmed": false,
	"spriteSourceSize": {"x":0,"y":0,"w":500,"h":500},
	"sourceSize": {"w":500,"h":500},
	"pivot": {"x":0.5,"y":0.5}
},
{
	"filename": "Character_00009",
	"frame": {"x":503,"y":503,"w":500,"h":500},
	"rotated": false,
	"trimmed": false,
	"spriteSourceSize": {"x":0,"y":0,"w":500,"h":500},
	"sourceSize": {"w":500,"h":500},
	"pivot": {"x":0.5,"y":0.5}
},
{
	"filename": "Character_00010",
	"frame": {"x":503,"y":1005,"w":500,"h":500},
	"rotated": false,
	"trimmed": false,
	"spriteSourceSize": {"x":0,"y":0,"w":500,"h":500},
	"sourceSize": {"w":500,"h":500},
	"pivot": {"x":0.5,"y":0.5}
},
{
	"filename": "Character_00011",
	"frame": {"x":503,"y":1507,"w":500,"h":500},
	"rotated": false,
	"trimmed": false,
	"spriteSourceSize": {"x":0,"y":0,"w":500,"h":500},
	"sourceSize": {"w":500,"h":500},
	"pivot": {"x":0.5,"y":0.5}
},
{
	"filename": "Character_00012",
	"frame": {"x":503,"y":2009,"w":500,"h":500},
	"rotated": false,
	"trimmed": false,
	"spriteSourceSize": {"x":0,"y":0,"w":500,"h":500},
	"sourceSize": {"w":500,"h":500},
	"pivot": {"x":0.5,"y":0.5}
},
{
	"filename": "Character_00013",
	"frame": {"x":503,"y":2511,"w":500,"h":500},
	"rotated": false,
	"trimmed": false,
	"spriteSourceSize": {"x":0,"y":0,"w":500,"h":500},
	"sourceSize": {"w":500,"h":500},
	"pivot": {"x":0.5,"y":0.5}
},
{
	"filename": "Character_00014",
	"frame": {"x":503,"y":3013,"w":500,"h":500},
	"rotated": false,
	"trimmed": false,
	"spriteSourceSize": {"x":0,"y":0,"w":500,"h":500},
	"sourceSize": {"w":500,"h":500},
	"pivot": {"x":0.5,"y":0.5}
},
{
	"filename": "Character_00015",
	"frame": {"x":503,"y":3515,"w":500,"h":500},
	"rotated": false,
	"trimmed": false,
	"spriteSourceSize": {"x":0,"y":0,"w":500,"h":500},
	"sourceSize": {"w":500,"h":500},
	"pivot": {"x":0.5,"y":0.5}
},
{
	"filename": "Character_00016",
	"frame": {"x":1005,"y":1,"w":500,"h":500},
	"rotated": false,
	"trimmed": false,
	"spriteSourceSize": {"x":0,"y":0,"w":500,"h":500},
	"sourceSize": {"w":500,"h":500},
	"pivot": {"x":0.5,"y":0.5}
},
{
	"filename": "Character_00017",
	"frame": {"x":1005,"y":503,"w":500,"h":500},
	"rotated": false,
	"trimmed": false,
	"spriteSourceSize": {"x":0,"y":0,"w":500,"h":500},
	"sourceSize": {"w":500,"h":500},
	"pivot": {"x":0.5,"y":0.5}
},
{
	"filename": "Character_00018",
	"frame": {"x":1005,"y":1005,"w":500,"h":500},
	"rotated": false,
	"trimmed": false,
	"spriteSourceSize": {"x":0,"y":0,"w":500,"h":500},
	"sourceSize": {"w":500,"h":500},
	"pivot": {"x":0.5,"y":0.5}
},
{
	"filename": "Character_00019",
	"frame": {"x":1005,"y":1507,"w":500,"h":500},
	"rotated": false,
	"trimmed": false,
	"spriteSourceSize": {"x":0,"y":0,"w":500,"h":500},
	"sourceSize": {"w":500,"h":500},
	"pivot": {"x":0.5,"y":0.5}
},
{
	"filename": "Character_00020",
	"frame": {"x":1005,"y":2009,"w":500,"h":500},
	"rotated": false,
	"trimmed": false,
	"spriteSourceSize": {"x":0,"y":0,"w":500,"h":500},
	"sourceSize": {"w":500,"h":500},
	"pivot": {"x":0.5,"y":0.5}
},
{
	"filename": "Character_00021",
	"frame": {"x":1005,"y":2511,"w":500,"h":500},
	"rotated": false,
	"trimmed": false,
	"spriteSourceSize": {"x":0,"y":0,"w":500,"h":500},
	"sourceSize": {"w":500,"h":500},
	"pivot": {"x":0.5,"y":0.5}
},
{
	"filename": "Character_00022",
	"frame": {"x":1005,"y":3013,"w":500,"h":500},
	"rotated": false,
	"trimmed": false,
	"spriteSourceSize": {"x":0,"y":0,"w":500,"h":500},
	"sourceSize": {"w":500,"h":500},
	"pivot": {"x":0.5,"y":0.5}
},
{
	"filename": "Character_00023",
	"frame": {"x":1005,"y":3515,"w":500,"h":500},
	"rotated": false,
	"trimmed": false,
	"spriteSourceSize": {"x":0,"y":0,"w":500,"h":500},
	"sourceSize": {"w":500,"h":500},
	"pivot": {"x":0.5,"y":0.5}
},
{
	"filename": "Character_00024",
	"frame": {"x":1507,"y":1,"w":500,"h":500},
	"rotated": false,
	"trimmed": false,
	"spriteSourceSize": {"x":0,"y":0,"w":500,"h":500},
	"sourceSize": {"w":500,"h":500},
	"pivot": {"x":0.5,"y":0.5}
},
{
	"filename": "Character_00025",
	"frame": {"x":1507,"y":503,"w":500,"h":500},
	"rotated": false,
	"trimmed": false,
	"spriteSourceSize": {"x":0,"y":0,"w":500,"h":500},
	"sourceSize": {"w":500,"h":500},
	"pivot": {"x":0.5,"y":0.5}
},
{
	"filename": "Character_00026",
	"frame": {"x":1507,"y":1005,"w":500,"h":500},
	"rotated": false,
	"trimmed": false,
	"spriteSourceSize": {"x":0,"y":0,"w":500,"h":500},
	"sourceSize": {"w":500,"h":500},
	"pivot": {"x":0.5,"y":0.5}
},
{
	"filename": "Character_00027",
	"frame": {"x":1507,"y":1507,"w":500,"h":500},
	"rotated": false,
	"trimmed": false,
	"spriteSourceSize": {"x":0,"y":0,"w":500,"h":500},
	"sourceSize": {"w":500,"h":500},
	"pivot": {"x":0.5,"y":0.5}
},
{
	"filename": "Character_00028",
	"frame": {"x":1507,"y":2009,"w":500,"h":500},
	"rotated": false,
	"trimmed": false,
	"spriteSourceSize": {"x":0,"y":0,"w":500,"h":500},
	"sourceSize": {"w":500,"h":500},
	"pivot": {"x":0.5,"y":0.5}
},
{
	"filename": "Character_00029",
	"frame": {"x":1507,"y":2511,"w":500,"h":500},
	"rotated": false,
	"trimmed": false,
	"spriteSourceSize": {"x":0,"y":0,"w":500,"h":500},
	"sourceSize": {"w":500,"h":500},
	"pivot": {"x":0.5,"y":0.5}
},
{
	"filename": "Character_00030",
	"frame": {"x":1507,"y":3013,"w":500,"h":500},
	"rotated": false,
	"trimmed": false,
	"spriteSourceSize": {"x":0,"y":0,"w":500,"h":500},
	"sourceSize": {"w":500,"h":500},
	"pivot": {"x":0.5,"y":0.5}
},
{
	"filename": "Character_00031",
	"frame": {"x":1507,"y":3515,"w":500,"h":500},
	"rotated": false,
	"trimmed": false,
	"spriteSourceSize": {"x":0,"y":0,"w":500,"h":500},
	"sourceSize": {"w":500,"h":500},
	"pivot": {"x":0.5,"y":0.5}
},
{
	"filename": "Character_00032",
	"frame": {"x":2009,"y":1,"w":500,"h":500},
	"rotated": false,
	"trimmed": false,
	"spriteSourceSize": {"x":0,"y":0,"w":500,"h":500},
	"sourceSize": {"w":500,"h":500},
	"pivot": {"x":0.5,"y":0.5}
},
{
	"filename": "Character_00033",
	"frame": {"x":2009,"y":503,"w":500,"h":500},
	"rotated": false,
	"trimmed": false,
	"spriteSourceSize": {"x":0,"y":0,"w":500,"h":500},
	"sourceSize": {"w":500,"h":500},
	"pivot": {"x":0.5,"y":0.5}
},
{
	"filename": "Character_00034",
	"frame": {"x":2009,"y":1005,"w":500,"h":500},
	"rotated": false,
	"trimmed": false,
	"spriteSourceSize": {"x":0,"y":0,"w":500,"h":500},
	"sourceSize": {"w":500,"h":500},
	"pivot": {"x":0.5,"y":0.5}
},
{
	"filename": "Character_00035",
	"frame": {"x":2009,"y":1507,"w":500,"h":500},
	"rotated": false,
	"trimmed": false,
	"spriteSourceSize": {"x":0,"y":0,"w":500,"h":500},
	"sourceSize": {"w":500,"h":500},
	"pivot": {"x":0.5,"y":0.5}
},
{
	"filename": "Character_00036",
	"frame": {"x":2009,"y":2009,"w":500,"h":500},
	"rotated": false,
	"trimmed": false,
	"spriteSourceSize": {"x":0,"y":0,"w":500,"h":500},
	"sourceSize": {"w":500,"h":500},
	"pivot": {"x":0.5,"y":0.5}
},
{
	"filename": "Character_00037",
	"frame": {"x":2009,"y":2511,"w":500,"h":500},
	"rotated": false,
	"trimmed": false,
	"spriteSourceSize": {"x":0,"y":0,"w":500,"h":500},
	"sourceSize": {"w":500,"h":500},
	"pivot": {"x":0.5,"y":0.5}
},
{
	"filename": "Character_00038",
	"frame": {"x":2009,"y":3013,"w":500,"h":500},
	"rotated": false,
	"trimmed": false,
	"spriteSourceSize": {"x":0,"y":0,"w":500,"h":500},
	"sourceSize": {"w":500,"h":500},
	"pivot": {"x":0.5,"y":0.5}
},
{
	"filename": "Character_00039",
	"frame": {"x":2009,"y":3515,"w":500,"h":500},
	"rotated": false,
	"trimmed": false,
	"spriteSourceSize": {"x":0,"y":0,"w":500,"h":500},
	"sourceSize": {"w":500,"h":500},
	"pivot": {"x":0.5,"y":0.5}
},
{
	"filename": "Character_00040",
	"frame": {"x":2511,"y":1,"w":500,"h":500},
	"rotated": false,
	"trimmed": false,
	"spriteSourceSize": {"x":0,"y":0,"w":500,"h":500},
	"sourceSize": {"w":500,"h":500},
	"pivot": {"x":0.5,"y":0.5}
},
{
	"filename": "Character_00041",
	"frame": {"x":2511,"y":503,"w":500,"h":500},
	"rotated": false,
	"trimmed": false,
	"spriteSourceSize": {"x":0,"y":0,"w":500,"h":500},
	"sourceSize": {"w":500,"h":500},
	"pivot": {"x":0.5,"y":0.5}
},
{
	"filename": "Character_00042",
	"frame": {"x":2511,"y":1005,"w":500,"h":500},
	"rotated": false,
	"trimmed": false,
	"spriteSourceSize": {"x":0,"y":0,"w":500,"h":500},
	"sourceSize": {"w":500,"h":500},
	"pivot": {"x":0.5,"y":0.5}
},
{
	"filename": "Character_00043",
	"frame": {"x":2511,"y":1507,"w":500,"h":500},
	"rotated": false,
	"trimmed": false,
	"spriteSourceSize": {"x":0,"y":0,"w":500,"h":500},
	"sourceSize": {"w":500,"h":500},
	"pivot": {"x":0.5,"y":0.5}
},
{
	"filename": "Character_00044",
	"frame": {"x":2511,"y":2009,"w":500,"h":500},
	"rotated": false,
	"trimmed": false,
	"spriteSourceSize": {"x":0,"y":0,"w":500,"h":500},
	"sourceSize": {"w":500,"h":500},
	"pivot": {"x":0.5,"y":0.5}
},
{
	"filename": "Character_00045",
	"frame": {"x":2511,"y":2511,"w":500,"h":500},
	"rotated": false,
	"trimmed": false,
	"spriteSourceSize": {"x":0,"y":0,"w":500,"h":500},
	"sourceSize": {"w":500,"h":500},
	"pivot": {"x":0.5,"y":0.5}
},
{
	"filename": "Character_00046",
	"frame": {"x":2511,"y":3013,"w":500,"h":500},
	"rotated": false,
	"trimmed": false,
	"spriteSourceSize": {"x":0,"y":0,"w":500,"h":500},
	"sourceSize": {"w":500,"h":500},
	"pivot": {"x":0.5,"y":0.5}
},
{
	"filename": "Character_00047",
	"frame": {"x":2511,"y":3515,"w":500,"h":500},
	"rotated": false,
	"trimmed": false,
	"spriteSourceSize": {"x":0,"y":0,"w":500,"h":500},
	"sourceSize": {"w":500,"h":500},
	"pivot": {"x":0.5,"y":0.5}
}],
"meta": {
	"app": "https://www.codeandweb.com/texturepacker",
	"version": "1.0",
	"image": "Head-Title_Monkey",
	"format": "RGBA8888",
	"size": {"w":3012,"h":4016},
	"scale": "1",
	"smartupdate": "$TexturePacker:SmartUpdate:e07fb4d84814d73d29739b3354b8b553:fcebb81f1451c9a8d3bd62c88cce3c1b:72de7a7b44845e5b1d09ee3003bf0f11$"
}
}
