{"frames": [

{
	"filename": "Character_00000",
	"frame": {"x":1,"y":1,"w":179,"h":300},
	"rotated": false,
	"trimmed": false,
	"spriteSourceSize": {"x":0,"y":0,"w":179,"h":300},
	"sourceSize": {"w":179,"h":300},
	"pivot": {"x":0.5,"y":0.5}
},
{
	"filename": "Character_00001",
	"frame": {"x":1,"y":303,"w":179,"h":300},
	"rotated": false,
	"trimmed": false,
	"spriteSourceSize": {"x":0,"y":0,"w":179,"h":300},
	"sourceSize": {"w":179,"h":300},
	"pivot": {"x":0.5,"y":0.5}
},
{
	"filename": "Character_00002",
	"frame": {"x":1,"y":605,"w":179,"h":300},
	"rotated": false,
	"trimmed": false,
	"spriteSourceSize": {"x":0,"y":0,"w":179,"h":300},
	"sourceSize": {"w":179,"h":300},
	"pivot": {"x":0.5,"y":0.5}
},
{
	"filename": "Character_00003",
	"frame": {"x":1,"y":907,"w":179,"h":300},
	"rotated": false,
	"trimmed": false,
	"spriteSourceSize": {"x":0,"y":0,"w":179,"h":300},
	"sourceSize": {"w":179,"h":300},
	"pivot": {"x":0.5,"y":0.5}
},
{
	"filename": "Character_00004",
	"frame": {"x":1,"y":1209,"w":179,"h":300},
	"rotated": false,
	"trimmed": false,
	"spriteSourceSize": {"x":0,"y":0,"w":179,"h":300},
	"sourceSize": {"w":179,"h":300},
	"pivot": {"x":0.5,"y":0.5}
},
{
	"filename": "Character_00005",
	"frame": {"x":182,"y":1,"w":179,"h":300},
	"rotated": false,
	"trimmed": false,
	"spriteSourceSize": {"x":0,"y":0,"w":179,"h":300},
	"sourceSize": {"w":179,"h":300},
	"pivot": {"x":0.5,"y":0.5}
},
{
	"filename": "Character_00006",
	"frame": {"x":182,"y":303,"w":179,"h":300},
	"rotated": false,
	"trimmed": false,
	"spriteSourceSize": {"x":0,"y":0,"w":179,"h":300},
	"sourceSize": {"w":179,"h":300},
	"pivot": {"x":0.5,"y":0.5}
},
{
	"filename": "Character_00007",
	"frame": {"x":182,"y":605,"w":179,"h":300},
	"rotated": false,
	"trimmed": false,
	"spriteSourceSize": {"x":0,"y":0,"w":179,"h":300},
	"sourceSize": {"w":179,"h":300},
	"pivot": {"x":0.5,"y":0.5}
},
{
	"filename": "Character_00008",
	"frame": {"x":182,"y":907,"w":179,"h":300},
	"rotated": false,
	"trimmed": false,
	"spriteSourceSize": {"x":0,"y":0,"w":179,"h":300},
	"sourceSize": {"w":179,"h":300},
	"pivot": {"x":0.5,"y":0.5}
},
{
	"filename": "Character_00009",
	"frame": {"x":182,"y":1209,"w":179,"h":300},
	"rotated": false,
	"trimmed": false,
	"spriteSourceSize": {"x":0,"y":0,"w":179,"h":300},
	"sourceSize": {"w":179,"h":300},
	"pivot": {"x":0.5,"y":0.5}
},
{
	"filename": "Character_00010",
	"frame": {"x":363,"y":1,"w":179,"h":300},
	"rotated": false,
	"trimmed": false,
	"spriteSourceSize": {"x":0,"y":0,"w":179,"h":300},
	"sourceSize": {"w":179,"h":300},
	"pivot": {"x":0.5,"y":0.5}
},
{
	"filename": "Character_00011",
	"frame": {"x":363,"y":303,"w":179,"h":300},
	"rotated": false,
	"trimmed": false,
	"spriteSourceSize": {"x":0,"y":0,"w":179,"h":300},
	"sourceSize": {"w":179,"h":300},
	"pivot": {"x":0.5,"y":0.5}
},
{
	"filename": "Character_00012",
	"frame": {"x":363,"y":605,"w":179,"h":300},
	"rotated": false,
	"trimmed": false,
	"spriteSourceSize": {"x":0,"y":0,"w":179,"h":300},
	"sourceSize": {"w":179,"h":300},
	"pivot": {"x":0.5,"y":0.5}
},
{
	"filename": "Character_00013",
	"frame": {"x":363,"y":907,"w":179,"h":300},
	"rotated": false,
	"trimmed": false,
	"spriteSourceSize": {"x":0,"y":0,"w":179,"h":300},
	"sourceSize": {"w":179,"h":300},
	"pivot": {"x":0.5,"y":0.5}
},
{
	"filename": "Character_00014",
	"frame": {"x":363,"y":1209,"w":179,"h":300},
	"rotated": false,
	"trimmed": false,
	"spriteSourceSize": {"x":0,"y":0,"w":179,"h":300},
	"sourceSize": {"w":179,"h":300},
	"pivot": {"x":0.5,"y":0.5}
},
{
	"filename": "Character_00015",
	"frame": {"x":544,"y":1,"w":179,"h":300},
	"rotated": false,
	"trimmed": false,
	"spriteSourceSize": {"x":0,"y":0,"w":179,"h":300},
	"sourceSize": {"w":179,"h":300},
	"pivot": {"x":0.5,"y":0.5}
},
{
	"filename": "Character_00016",
	"frame": {"x":544,"y":303,"w":179,"h":300},
	"rotated": false,
	"trimmed": false,
	"spriteSourceSize": {"x":0,"y":0,"w":179,"h":300},
	"sourceSize": {"w":179,"h":300},
	"pivot": {"x":0.5,"y":0.5}
},
{
	"filename": "Character_00017",
	"frame": {"x":544,"y":605,"w":179,"h":300},
	"rotated": false,
	"trimmed": false,
	"spriteSourceSize": {"x":0,"y":0,"w":179,"h":300},
	"sourceSize": {"w":179,"h":300},
	"pivot": {"x":0.5,"y":0.5}
},
{
	"filename": "Character_00018",
	"frame": {"x":544,"y":907,"w":179,"h":300},
	"rotated": false,
	"trimmed": false,
	"spriteSourceSize": {"x":0,"y":0,"w":179,"h":300},
	"sourceSize": {"w":179,"h":300},
	"pivot": {"x":0.5,"y":0.5}
},
{
	"filename": "Character_00019",
	"frame": {"x":544,"y":1209,"w":179,"h":300},
	"rotated": false,
	"trimmed": false,
	"spriteSourceSize": {"x":0,"y":0,"w":179,"h":300},
	"sourceSize": {"w":179,"h":300},
	"pivot": {"x":0.5,"y":0.5}
},
{
	"filename": "Character_00020",
	"frame": {"x":725,"y":1,"w":179,"h":300},
	"rotated": false,
	"trimmed": false,
	"spriteSourceSize": {"x":0,"y":0,"w":179,"h":300},
	"sourceSize": {"w":179,"h":300},
	"pivot": {"x":0.5,"y":0.5}
},
{
	"filename": "Character_00021",
	"frame": {"x":906,"y":1,"w":179,"h":300},
	"rotated": false,
	"trimmed": false,
	"spriteSourceSize": {"x":0,"y":0,"w":179,"h":300},
	"sourceSize": {"w":179,"h":300},
	"pivot": {"x":0.5,"y":0.5}
},
{
	"filename": "Character_00022",
	"frame": {"x":1087,"y":1,"w":179,"h":300},
	"rotated": false,
	"trimmed": false,
	"spriteSourceSize": {"x":0,"y":0,"w":179,"h":300},
	"sourceSize": {"w":179,"h":300},
	"pivot": {"x":0.5,"y":0.5}
},
{
	"filename": "Character_00023",
	"frame": {"x":1268,"y":1,"w":179,"h":300},
	"rotated": false,
	"trimmed": false,
	"spriteSourceSize": {"x":0,"y":0,"w":179,"h":300},
	"sourceSize": {"w":179,"h":300},
	"pivot": {"x":0.5,"y":0.5}
},
{
	"filename": "Character_00024",
	"frame": {"x":1449,"y":1,"w":179,"h":300},
	"rotated": false,
	"trimmed": false,
	"spriteSourceSize": {"x":0,"y":0,"w":179,"h":300},
	"sourceSize": {"w":179,"h":300},
	"pivot": {"x":0.5,"y":0.5}
},
{
	"filename": "Character_00025",
	"frame": {"x":1630,"y":1,"w":179,"h":300},
	"rotated": false,
	"trimmed": false,
	"spriteSourceSize": {"x":0,"y":0,"w":179,"h":300},
	"sourceSize": {"w":179,"h":300},
	"pivot": {"x":0.5,"y":0.5}
},
{
	"filename": "Character_00026",
	"frame": {"x":725,"y":303,"w":179,"h":300},
	"rotated": false,
	"trimmed": false,
	"spriteSourceSize": {"x":0,"y":0,"w":179,"h":300},
	"sourceSize": {"w":179,"h":300},
	"pivot": {"x":0.5,"y":0.5}
},
{
	"filename": "Character_00027",
	"frame": {"x":725,"y":605,"w":179,"h":300},
	"rotated": false,
	"trimmed": false,
	"spriteSourceSize": {"x":0,"y":0,"w":179,"h":300},
	"sourceSize": {"w":179,"h":300},
	"pivot": {"x":0.5,"y":0.5}
},
{
	"filename": "Character_00028",
	"frame": {"x":725,"y":907,"w":179,"h":300},
	"rotated": false,
	"trimmed": false,
	"spriteSourceSize": {"x":0,"y":0,"w":179,"h":300},
	"sourceSize": {"w":179,"h":300},
	"pivot": {"x":0.5,"y":0.5}
},
{
	"filename": "Character_00029",
	"frame": {"x":725,"y":1209,"w":179,"h":300},
	"rotated": false,
	"trimmed": false,
	"spriteSourceSize": {"x":0,"y":0,"w":179,"h":300},
	"sourceSize": {"w":179,"h":300},
	"pivot": {"x":0.5,"y":0.5}
},
{
	"filename": "Character_00030",
	"frame": {"x":906,"y":303,"w":179,"h":300},
	"rotated": false,
	"trimmed": false,
	"spriteSourceSize": {"x":0,"y":0,"w":179,"h":300},
	"sourceSize": {"w":179,"h":300},
	"pivot": {"x":0.5,"y":0.5}
},
{
	"filename": "Character_00031",
	"frame": {"x":1087,"y":303,"w":179,"h":300},
	"rotated": false,
	"trimmed": false,
	"spriteSourceSize": {"x":0,"y":0,"w":179,"h":300},
	"sourceSize": {"w":179,"h":300},
	"pivot": {"x":0.5,"y":0.5}
},
{
	"filename": "Character_00032",
	"frame": {"x":1268,"y":303,"w":179,"h":300},
	"rotated": false,
	"trimmed": false,
	"spriteSourceSize": {"x":0,"y":0,"w":179,"h":300},
	"sourceSize": {"w":179,"h":300},
	"pivot": {"x":0.5,"y":0.5}
},
{
	"filename": "Character_00033",
	"frame": {"x":1449,"y":303,"w":179,"h":300},
	"rotated": false,
	"trimmed": false,
	"spriteSourceSize": {"x":0,"y":0,"w":179,"h":300},
	"sourceSize": {"w":179,"h":300},
	"pivot": {"x":0.5,"y":0.5}
},
{
	"filename": "Character_00034",
	"frame": {"x":1630,"y":303,"w":179,"h":300},
	"rotated": false,
	"trimmed": false,
	"spriteSourceSize": {"x":0,"y":0,"w":179,"h":300},
	"sourceSize": {"w":179,"h":300},
	"pivot": {"x":0.5,"y":0.5}
},
{
	"filename": "Character_00035",
	"frame": {"x":906,"y":605,"w":179,"h":300},
	"rotated": false,
	"trimmed": false,
	"spriteSourceSize": {"x":0,"y":0,"w":179,"h":300},
	"sourceSize": {"w":179,"h":300},
	"pivot": {"x":0.5,"y":0.5}
},
{
	"filename": "Character_00036",
	"frame": {"x":906,"y":907,"w":179,"h":300},
	"rotated": false,
	"trimmed": false,
	"spriteSourceSize": {"x":0,"y":0,"w":179,"h":300},
	"sourceSize": {"w":179,"h":300},
	"pivot": {"x":0.5,"y":0.5}
},
{
	"filename": "Character_00037",
	"frame": {"x":906,"y":1209,"w":179,"h":300},
	"rotated": false,
	"trimmed": false,
	"spriteSourceSize": {"x":0,"y":0,"w":179,"h":300},
	"sourceSize": {"w":179,"h":300},
	"pivot": {"x":0.5,"y":0.5}
},
{
	"filename": "Character_00038",
	"frame": {"x":1087,"y":605,"w":179,"h":300},
	"rotated": false,
	"trimmed": false,
	"spriteSourceSize": {"x":0,"y":0,"w":179,"h":300},
	"sourceSize": {"w":179,"h":300},
	"pivot": {"x":0.5,"y":0.5}
},
{
	"filename": "Character_00039",
	"frame": {"x":1087,"y":907,"w":179,"h":300},
	"rotated": false,
	"trimmed": false,
	"spriteSourceSize": {"x":0,"y":0,"w":179,"h":300},
	"sourceSize": {"w":179,"h":300},
	"pivot": {"x":0.5,"y":0.5}
},
{
	"filename": "Character_00040",
	"frame": {"x":1087,"y":1209,"w":179,"h":300},
	"rotated": false,
	"trimmed": false,
	"spriteSourceSize": {"x":0,"y":0,"w":179,"h":300},
	"sourceSize": {"w":179,"h":300},
	"pivot": {"x":0.5,"y":0.5}
},
{
	"filename": "Character_00041",
	"frame": {"x":1268,"y":605,"w":179,"h":300},
	"rotated": false,
	"trimmed": false,
	"spriteSourceSize": {"x":0,"y":0,"w":179,"h":300},
	"sourceSize": {"w":179,"h":300},
	"pivot": {"x":0.5,"y":0.5}
},
{
	"filename": "Character_00042",
	"frame": {"x":1449,"y":605,"w":179,"h":300},
	"rotated": false,
	"trimmed": false,
	"spriteSourceSize": {"x":0,"y":0,"w":179,"h":300},
	"sourceSize": {"w":179,"h":300},
	"pivot": {"x":0.5,"y":0.5}
},
{
	"filename": "Character_00043",
	"frame": {"x":1630,"y":605,"w":179,"h":300},
	"rotated": false,
	"trimmed": false,
	"spriteSourceSize": {"x":0,"y":0,"w":179,"h":300},
	"sourceSize": {"w":179,"h":300},
	"pivot": {"x":0.5,"y":0.5}
},
{
	"filename": "Character_00044",
	"frame": {"x":1268,"y":907,"w":179,"h":300},
	"rotated": false,
	"trimmed": false,
	"spriteSourceSize": {"x":0,"y":0,"w":179,"h":300},
	"sourceSize": {"w":179,"h":300},
	"pivot": {"x":0.5,"y":0.5}
},
{
	"filename": "Character_00045",
	"frame": {"x":1268,"y":1209,"w":179,"h":300},
	"rotated": false,
	"trimmed": false,
	"spriteSourceSize": {"x":0,"y":0,"w":179,"h":300},
	"sourceSize": {"w":179,"h":300},
	"pivot": {"x":0.5,"y":0.5}
},
{
	"filename": "Character_00046",
	"frame": {"x":1449,"y":907,"w":179,"h":300},
	"rotated": false,
	"trimmed": false,
	"spriteSourceSize": {"x":0,"y":0,"w":179,"h":300},
	"sourceSize": {"w":179,"h":300},
	"pivot": {"x":0.5,"y":0.5}
},
{
	"filename": "Character_00047",
	"frame": {"x":1449,"y":1209,"w":179,"h":300},
	"rotated": false,
	"trimmed": false,
	"spriteSourceSize": {"x":0,"y":0,"w":179,"h":300},
	"sourceSize": {"w":179,"h":300},
	"pivot": {"x":0.5,"y":0.5}
}],
"meta": {
	"app": "https://www.codeandweb.com/texturepacker",
	"version": "1.0",
	"image": "Bear_Selected",
	"format": "RGBA8888",
	"size": {"w":1810,"h":1510},
	"scale": "0.3",
	"smartupdate": "$TexturePacker:SmartUpdate:9f5a6a88618b83949a695fe7a5f4f3b9:c4c457e8ad35f08d8e1d3ad1d51e65a5:191677dce17ffdc5136aa2b7114eaefd$"
}
}
